
konwell_1_institute = {
	slot = 1
	generic = no
	ai = yes
	has_country_shield = yes
	potential = { tag = A35 }
	
	konwell_invite_dwarves = {
		icon = mission_smith
		position = 2
		required_missions = {
			konwell_institute_investment
		}
		
		trigger = {
			any_country = {
				culture_group = dwarven
				has_opinion = {
					who = ROOT
					value = 100
				}
			}
			any_owned_province = {
				OR = {
					AND = {
						trade_goods = iron
						has_production_building_trigger = yes
					}
					AND = {
						trade_goods = copper
						has_production_building_trigger = yes
					}
					trade_goods = gold
				}
				base_production = 10
			}
		}
		effect = {
			add_country_modifier = {
				name = konwell_dwarves_invited
				duration = 7300
			}
			275 = { #Konwell
				add_dwarven_minority_size_effect = yes
			}
			medium_increase_of_dwarven_tolerance_effect = yes		
		}
	}
	konwell_invite_gnomes = {
		icon = mission_artificier_experience
		position = 3
		required_missions = {
			konwell_invite_dwarves
		}
		
		trigger = {
			any_country = {
				culture_group = gnomish
				has_opinion = {
					who = ROOT
					value = 100
				}
			}
			if = {
				limit = { has_dlc = "Rule Britannia" }
				innovativeness = 20
			}
			else = {
				dip_power = 150
				adm_power = 150
				mil_power = 150
			}
		}
		effect = {
			add_country_modifier = {
				name = konwell_gnomes_invited
				duration = 7300
			}
			add_country_modifier = {
				name = innovation_wave
				duration = 7300
			}
			if = {
				limit = { NOT = { has_dlc = "Rule Britannia" } }
				add_adm_power = -150
				add_dip_power = -150
				add_mil_power = -150
			}
			275 = { #Konwell
				add_gnomish_minority_size_effect = yes
			}
			medium_increase_of_gnomish_tolerance_effect = yes
		}
	}	
	konwell_build_new_wing = {
		icon = public_works
		position = 4
		required_missions = {
			konwell_invite_gnomes
			konwell_invite_elves
		}
		
		trigger = {
			treasury = 1000
			275 = { 
				AND = { 
					development = 40 
					NOT = { has_construction = building } 
				}
			}
		}
		effect = {
			add_country_modifier = {
				name = konwell_started_institute_wing
				duration = 7300
			}
			country_event = { id = konwell.5 }
			custom_tooltip = konwell_build_new_wing_effect
		}
	}
	konwell_exchange_program = {
		icon = imperial_capitals
		position = 5
		required_missions = {
			konwell_build_new_wing
		}
		
		trigger = {
			OR = {
				AND = {
					any_country = {
						owns_core_province = 8
						has_opinion = {
							who = ROOT
							value = 150
						}
					}
					dip_power = 50
				}
				AND = {
					owns_or_non_sovereign_subject_of = 8
					8 = { NOT = { local_autonomy = 1 } }
				}
			}
		}
		effect = {
			if = {
				limit = { 8 = { NOT = { is_core = ROOT } } }
				add_dip_power = -50
			}
			add_country_modifier = {
				name = konwell_tech_cost
				duration = 3650
			}
			define_advisor = {
				type = court_mage
				skill = 3
				discount = yes
			}
			define_advisor = {
				type = naval_reformer
				skill = 3
				discount = yes
			}
			define_advisor = {
				type = army_reformer
				skill = 3
				discount = yes
			}
		}
	}

	#Artificery 101

	#Theoretical Magics

	#School of Artificery

	#note that the konwell institute wings have artificery option so that does it for you already
}
	
konwell_2_institute = {
	slot = 2
	generic = no
	ai = yes
	has_country_shield = yes
	potential = { tag = A35 }
	
	konwell_institute_investment = {
		icon = leiden_university
		position = 1
		
		provinces_to_highlight = { province_id = 275 } #Konwell
		trigger = {
			275 = { development = 25 }
		}
		effect = {
			change_innovativeness = 5
			if = { limit = { NOT = { has_dlc = "Rule Britannia" } }
				add_country_modifier = {
					name = konwell_tech_cost
					duration = 7300
				}
			}
			custom_tooltip = konwell_advisors_effect
			hidden_effect = {
				random_list = {
					1 = {
						define_advisor = {
							type = philosopher
							skill = 2
							discount = yes 
						}
					}
					1 = {
						define_advisor = {
							type = natural_scientist
							skill = 2
							discount = yes 
						}
					}
					1 = {
						define_advisor = {
							type = artist
							skill = 2
							discount = yes 
						}
					}
					1 = {
						define_advisor = {
							type = treasurer
							skill = 2
							discount = yes 
						}
					}
					1 = {
						define_advisor = {
							type = theologian
							skill = 2
							discount = yes 
						}
					}
					1 = {
						define_advisor = {
							type = master_of_mint
							skill = 2
							discount = yes 
						}
					}
				}
			}
		}
	}
	konwell_dewey_decimal = {
		icon = bibliotheca_corviana
		position = 2
		required_missions = {
			konwell_institute_investment
		}
		trigger = {
			adm = 5
			adm_power = 50
		}
		effect = {
			add_country_modifier = {
				name = konwell_idea_cost
				duration = 3650
			}
			add_adm_power = -50
		}
	}
	konwell_invite_elves = {
		icon = mission_white_tower
		position = 3
		required_missions = {
			konwell_invite_dwarves
		}
		
		trigger = {
			any_country = {
				culture_group = elven
				has_opinion = {
					who = ROOT
					value = 100
				}
			}
			any_owned_province = { has_building = mage_tower }
			prestige = 40
		}
		effect = {
			add_country_modifier = {
				name = konwell_elves_invited
				duration = 7300
			}
			275 = { #Konwell
				add_elven_minority_size_effect = yes
			}
			medium_increase_of_elven_tolerance_effect = yes
		}
	}
}


konwell_2_faith = {
	slot = 2
	generic = no
	ai = yes
	has_country_shield = yes
	potential = { tag = A35 }

	konwell_host_the_ravelian_society = {
		icon = all_bases_covered
		position = 4
		required_missions = {
			konwell_form_institute_press
		}
		
		trigger = {
			OR = {
				275 = { 
					owned_by = ROOT 
					OR = {
						has_province_modifier = ravelian_society
						has_province_modifier = ravelian_lodge
					}
				}
				religion = ravelian
			}
		}
		effect = {
			if = {
				limit = { 
					275 = { 
						has_province_modifier = ravelian_society 
					} 
				}
				add_stability_or_adm_power = yes
				275 = {
					remove_province_modifier = ravelian_society
					add_province_modifier = {
						name = ravelian_lodge
						duration = -1
					}
				}
			}
			else_if = {
				limit = { 
					275 = { 
						has_province_modifier = ravelian_lodge
					}
				}
				add_stability_or_adm_power = yes
				add_stability_or_adm_power = yes
			}
		}
	}
	
	konwell_question_of_faith = {
		icon = mission_luther_theses
		position = 5
		required_missions = {
			konwell_host_the_ravelian_society
		}
		
		trigger = {
			religion = ravelian
		}
		effect = {
			add_country_modifier = {
				name = konwell_ravelian_publications
				duration = 7300
			}
		}
	}

	konwell_establish_university_league = {
		icon = promote_urbanization
		position = 6
		required_missions = {
			konwell_exchange_program
		}

		trigger = {
			num_of_owned_provinces_with = {
				value = 5
				has_building = university
			}
			8 = {
				has_building = university
			}
			275 = {
				has_building = university
			}
			adm_power = 100
		}
		effect = {
			add_adm_power = -100
			country_event = { id = konwell.9 } 
		}
	}
}

	
konwell_3_paper_dev = {
	slot = 3
	generic = no
	ai = yes
	has_country_shield = yes
	potential = { tag = A35 }
	
	konwell_paper_production = {
		icon = mission_state_manufactories
		position = 1
		
		provinces_to_highlight = { province_id = 905 } #Millsbay
		trigger = {
			905 = { base_production = 10 }
			treasury = 300
			}
		effect = {
			905 = {
				change_trade_goods = cloth
				if = {
					limit = { NOT = { has_building = textile } } 
						add_building = textile
				}
			}
			add_treasury = -300
		}
	}
	konwell_master_scholar = {
		icon = adjust_the_general_means
		position = 2
		required_missions = {
			konwell_paper_production
		}
		
		trigger = {
			OR = {
				natural_scientist = 2
				artist = 2
				philosopher = 2
			}
			has_institution = renaissance
		}
		effect = {
			change_innovativeness = 5
			if = { limit = { NOT = { has_dlc = "Rule Britannia" } }
				add_country_modifier = {
					name = konwell_tech_cost #10% tech cost
					duration = 7300
				}
			}
		}
	}
	konwell_form_institute_press = {
		icon = subiaco_press
		position = 3
		required_missions = {
			konwell_master_scholar
		}
		
		trigger = {
			275 = {
				printing_press = 100
				has_production_building_trigger = yes
			}
			treasury = 300
		}
		effect = {
			add_country_modifier =  { 
				name = konwell_institute_press #2.5% tech cost, 10% institution spread
				duration = -1
			}
			add_treasury = -300
		}
	}
}
	
konwell_3_archives = {
	slot = 3
	generic = no
	ai = yes
	has_country_shield = yes
	potential = { tag = A35 }
	
	konwell_expand_imperial_archives = {
		icon = found_the_vatican_library
		position = 4
		
		trigger = {
			treasury = 200
			emperor = {
				has_opinion = {
					who = ROOT
					value = 75
				}
			}
		}
		effect = {
			add_treasury = -200
			add_country_modifier = {
				name = konwell_archives_expanded #10% AE reduction
				duration = 7300
			}

			emperor = {
				add_opinion = {
					who = ROOT
					modifier = konwell_archives_expanded_opinion #50 opinion for 25 years
				}
			}
			every_elector = {
				add_opinion = {
					who = ROOT
					modifier = konwell_archives_expanded_opinion #50 opinion for 25 years
				}
			}
		}
	}
	konwell_clerical_class = {
		icon = mission_discussion_arch
		position = 5
		required_missions = {
			konwell_expand_imperial_archives
		}
		
		trigger = {
			production_leader = { trade_goods = paper }
			OR = {
				courthouse = 5
				town_hall = 5
			}
			any_owned_province = {
				area = konwell_area
				has_building = state_house
			}
		}
		effect = {
			add_country_modifier = {
				name = konwell_clerical_recruitment #+1 advisor pool
				duration = -1
			}
			add_country_modifier = {
				name = konwell_efficient_admin #2.5 admin efficiency
				duration = 7300
			}
		}
	}
}

konwell_3_magic = {
	slot = 3
	generic = no
	ai = yes
	has_country_shield = yes
	potential = { tag = A35 }
	
	konwell_konwell_education = {
		icon = mission_diplomacy_missive
		position = 7
		required_missions = {
			konwell_clerical_class
			konwell_establish_university_league
		}
		
		trigger = {
			heir_age = 10
			custom_trigger_tooltip = {
				tooltip = konwell_magical_heir_trigger
				OR = {
					has_heir_flag = heir_consort_mage_personality
					heir_has_mage_personality = yes
				}
			} 
		}
		effect = {
			custom_tooltip = konwell_magical_heir_effect
			hidden_effect = {
				increase_heir_adm_effect = yes
				increase_heir_dip_effect = yes
				increase_heir_mil_effect = yes
			}
		}
	}
	konwell_childhood_books = {
		icon = mission_dark_book
		position = 8
		required_missions = {
			konwell_konwell_education
		}
		trigger = {
			ruler_has_mage_personality = yes
			ruler_age = 30
		}
		effect = {
			hidden_effect = {
				country_event = {
					id = konwell.16
				}
			}
			custom_tooltip = konwell_loreseeker_effect
			set_ruler_flag = ruler_studying_legend_lore
		}
	}
	konwell_magical_treatise = {
		icon = mission_science
		position = 9
		required_missions = {
			konwell_childhood_books
		}
		
		trigger = {
			ruler_has_mage_personality = yes
			custom_trigger_tooltip = { 
				tooltip = konwell_magical_treatise_trigger
				OR = {
					AND = {
						has_ruler_flag = divination_1
						has_ruler_flag = divination_2
						has_ruler_flag = divination_2
					}
					AND = {
						has_ruler_flag = transmutation_1
						has_ruler_flag = transmutation_2
						has_ruler_flag = transmutation_3
					}
				}
			}
		}
		effect = {
			add_country_modifier = {
				name = konwell_writing_magical_treatise
				duration = 730
			}
			country_event = {
				id = konwell.15
				days = 730
			}
		}
	}
	konwell_scholar_kings = {
		icon = mission_thinking_king
		position = 10
		required_missions = {
			konwell_magical_treatise
		}
		
		trigger = {
			custom_trigger_tooltip = {
				tooltip = konwell_scholar_kings_trigger
				OR = {
					AND = { 
						adm = 5 
						dip = 5 
					}
					AND = { 
						adm = 5 
						mil = 5
					}
					AND = { 
						dip = 5 
						mil = 5 
					}
				}
			}
			ruler_has_mage_personality = yes
			NOT = { has_country_modifier = konwell_writing_magical_treatise }
		}
		effect = {
			add_country_modifier = {
				name = konwell_scholar_kings #+1 adm policy
				duration = -1
			}
		}
	}
}
	
konwell_4_security = {
	slot = 4
	generic = no
	ai = yes
	has_country_shield = yes
	potential = { tag = A35 }
	
	konwell_secure_esmarian_ally = {
		icon = mission_alliances
		position = 1
		
		trigger = {
			OR = {
				AND = {
					alliance_with = A92
					NOT = { alliance_with = A93 }
				}
				AND = {
					NOT = { alliance_with = A92 }
					alliance_with = A93
				}
			}
		}
		effect = {
			add_country_modifier = {
				name = konwell_diplo_rep #+1 diplo rep
				duration = 7300
			}
			if = {
				limit = { alliance_with = A92 }
				A92 = {
					set_country_flag = konwell_alliance
				}
			}
			else = {
				A93 = {
					set_country_flag = konwell_alliance
				}
			}
		}
	}
	konwell_sift_through_archives = {
		icon = mission_vedic_education
		position = 2
		required_missions = {
			konwell_secure_esmarian_ally
		}
		trigger = {
			custom_trigger_tooltip = {
				tooltip = konwell_sift_through_archives_trigger
				any_ally = {
					has_country_flag = konwell_alliance
					has_opinion = {
						who = ROOT
						value = 180
					}
				}
			}
			dip_power = 100
		}
		effect = {
			if = {
				limit = { A92 = { has_country_flag = konwell_alliance } }
				A92 = { 
					country_event = { id = konwell.14 days = 30 } 
				}
			}
			else = {
				A93 = { 
					country_event = { id = konwell.14 days = 30 } 
				}
			}
			330 = {
				if = {
					limit = {
						AND = {
							NOT = { is_core = ROOT } 
							NOT = { is_permanent_claim = ROOT } 
						}
					}
					add_permanent_claim = ROOT
				}
			}
			910 = {
				if = {
					limit = {
						AND = {
							NOT = { is_core = ROOT } 
							NOT = { is_permanent_claim = ROOT } 
						}
					}
					add_permanent_claim = ROOT
				}
			}
			add_dip_power = -100
		}
	}
	konwell_southern_borders = {
		icon = fortress_of_belgrade
		position = 3
		required_missions = {
			konwell_sift_through_archives
		}
		
		provinces_to_highlight = {
			OR = {
				province_id = 330
				province_id = 910
			}
			NOT = {
				owned_by = ROOT
			}
		}
		trigger = {
			owns_or_non_sovereign_subject_of = 330
			owns_or_non_sovereign_subject_of = 910
			OR = {
				num_of_owned_provinces_with = {
					value = 1
					fort_level = 1
					area = damerian_dales_area
				}
				num_of_owned_provinces_with = {
					value = 1
					fort_level = 1	
					area = the_commons_area
				}
			}
		}
		effect = {
			damerian_dales_area = {
				limit = {
					NOT = { is_core = ROOT }
					NOT = { is_permanent_claim = ROOT }
				}
				add_permanent_claim = ROOT
			}
			the_commons_area = {
				limit = {
					NOT = { is_core = ROOT }
					NOT = { is_permanent_claim = ROOT }
				}
				add_permanent_claim = ROOT
			}
		}
	}
}

konwell_4_ryalan_temple = {
	slot = 4
	generic = no
	ai = yes
	has_country_shield = yes
	potential = { tag = A35 }
	
	konwell_ryalan_temple_relations = {
		icon = fund_the_monasteries
		position = 5
		
		trigger = {
			A43 = {
				has_opinion = {
					who = ROOT
					value = 150
				}
			}
		}
		effect = {
			add_country_modifier = {
				name = konwell_ryalan_friendly
				duration = 5475
			}
		}
	}
	
	konwell_administrative_duties = {
		icon = mission_establish_the_prikazy
		position = 6
		required_missions = {
			konwell_ryalan_temple_relations
			konwell_clerical_class
		}
		
		trigger = {
			custom_trigger_tooltip = {
				tooltip = konwell_ryalan_small_trigger
				A43 = { 
					NOT = { 
						num_of_provinces_owned_or_owned_by_non_sovereign_subjects_with = {
							value = 6
							is_core = A43
						} 
					}
				}
			}
			A43 = {
				has_opinion = {
					who = ROOT
					value = 150
				}
			}
			dip_power = 100
		}
		effect = {
			A43 = {
				country_event = { id = konwell.2 }
			}
			add_dip_power = -100
			custom_tooltip = konwell_ryalan_offer_effect
		}
	}
	
	konwell_supplant_priests = {
		icon = mission_dual_diplomacy
		position = 7
		required_missions = {
			konwell_administrative_duties
		}
		
		trigger = {
			A43 = {
				has_matching_religion = ROOT
				is_subject_of = ROOT
				is_subject_of_type = autonomous_vassal
			}
			NOT = { 
				has_country_modifier = konwell_admin_strain
				custom_trigger_tooltip = {
					tooltip = konwell_ryalan_small_trigger
					A43 = {
						num_of_provinces_owned_or_owned_by_non_sovereign_subjects_with = {
							value = 6
							is_core = A43
						}
					}
				}
			}
			estate_loyalty = {
				estate = estate_church
				loyalty = 60
			}
		}
		effect = {
			inherit = A43
			emperor = {
				add_opinion = {	
					who = ROOT
					modifier = konwell_emperor_mad #-50 opinion for 25 years
				}
			}
		}
	}
}
	
konwell_5_conquest = {
	slot = 5
	generic = no
	ai = yes
	has_country_shield = yes
	potential = { tag = A35 }
	
	konwell_prepare_army = {
		icon = neapolitan_govenance
		position = 2
		
		trigger = {
			army_size_percentage = 0.9
		}
		effect = {
			916 = {
				if = {
				limit = { NOT = { is_core = ROOT } }
				add_permanent_claim = ROOT
				}
			}
			songbarges_area = {
				limit = {
					NOT = { is_core = ROOT }
					NOT = { is_permanent_claim = ROOT }
				}
				add_claim = ROOT
			}
		}
	}
	konwell_seinathil_conquest = {
		icon = boh_humiliate_austria
		position = 3
		required_missions = {
			konwell_prepare_army
		}
		
		provinces_to_highlight = { province_id = 916 }
		trigger = {
			owns_or_non_sovereign_subject_of = 916
		}
		effect = {
			267 = {
				if = {
					limit = {
						NOT = { is_core = ROOT }
						NOT = { is_permanent_claim = ROOT }
					}
				add_permanent_claim = ROOT
				}
			}
			cann_esmar_area = {
				limit = {
					NOT = { is_core = ROOT }
					NOT = { is_permanent_claim = ROOT }
				}
				add_claim = ROOT
			}
		}
	}

	konwell_river_conquest = {
		icon = mission_advance_to_the_dnieper
		position = 5
		required_missions = {
			konwell_seinathil_conquest
		}
		
		provinces_to_highlight = { province_id = 267 }
		trigger = {
			owns_or_non_sovereign_subject_of = 267
		}
		effect = {
			268 = {
				if = { 
					limit = { 
						AND = {
							NOT = { is_core = ROOT } 
							NOT = { is_permanent_claim = ROOT } 
						}
					}
				add_permanent_claim = ROOT
				}
			}
		}
	}
	konwell_bennon_conquest = {
		icon = mission_cannons_firing
		position = 7
		required_missions = {
			konwell_river_conquest
		}
		
		provinces_to_highlight = { province_id = 268 }
		trigger = {
			owns_or_non_sovereign_subject_of = 268
		}
		effect = {
			bennonhill_area = {
				limit = {
					NOT = { is_core = ROOT }
					NOT = { is_permanent_claim = ROOT }
				}
				add_permanent_claim = ROOT
			}
		}
	}
}
	