
ovdalkanzad_conquest_1 = {
	slot = 1 
	generic = no
	ai = yes 
	has_country_shield = yes
	
	potential = {
		tag = H79
	}
	
	
	ovdalkanzad_clear_the_caves = { 
		icon = mission_alone_in_the_wood
		required_missions = { ovdalkanzad_extend_the_line_of_defense }
		position = 2
		
		provinces_to_highlight = {
			OR = {
				area = anduz_area
				area = ambermine_alley_area
				area = earthseed_area
			}
			NOT = {
				country_or_non_sovereign_subject_holds = ROOT
			}
		}
		
		trigger = {
			anduz_area = {
				type = all
				country_or_non_sovereign_subject_holds = ROOT
			}
			ambermine_alley_area = {
				type = all
				country_or_non_sovereign_subject_holds = ROOT
			}
			earthseed_area = {
				type = all
				country_or_non_sovereign_subject_holds = ROOT
			}
		}
		
		effect = {
			capital_scope = {
				add_base_production = 2
				add_base_tax = 2
				add_base_manpower = 2
			}
		}
	}
	
	ovdalkanzad_seal_the_roots = { 
		icon = mission_sinister_castle
		required_missions = { ovdalkanzad_clear_the_caves }
		position = 4
		
		provinces_to_highlight = {
			province_id = 4272
		}
		
		trigger = {
			4272 = {
				fort_level = 2
			}
		}
		
		effect = {
			4272 = {
				add_permanent_province_modifier = {
					name = ovdalkanzad_the_seal
					duration = -1
				}
			}
		}
	}
	
	ovdalkanzad_tap_the_roots = { 
		icon = mission_collect_yasak
		required_missions = { ovdalkanzad_seal_the_roots }
		position = 5
		
		provinces_to_highlight = {
			OR = {
				area = anduz_area
				area = ambermine_alley_area
				area = earthseed_area
			}
			OR = {
				NOT = { development = 6 }
				AND = {
					NOT = { has_production_building_trigger = yes }
					NOT = { trade_goods = gold }
				}
				NOT = { owned_by = ROOT }
			}
		}
		
		trigger = {
			anduz_area = {
				type = all
				development = 6
				OR = {
					has_production_building_trigger = yes
					trade_goods = gold
				}
				owned_by = ROOT
			}
			ambermine_alley_area = {
				type = all
				development = 6
				OR = {
					has_production_building_trigger = yes
					trade_goods = gold
				}
				owned_by = ROOT
			}
			earthseed_area = {
				type = all
				development = 6
				OR = {
					has_production_building_trigger = yes
					trade_goods = gold
				}
				owned_by = ROOT
			}
		}
		
		effect = {
			anduz_area = {
				add_province_modifier = {
					name = ovdalkanzad_bountiful_roots
					duration = 9125 #25 years
				}
			}
			ambermine_alley_area = {
				add_province_modifier = {
					name = ovdalkanzad_bountiful_roots
					duration = 9125 #25 years
				}
			}
			earthseed_area = {
				add_province_modifier = {
					name = ovdalkanzad_bountiful_roots
					duration = 9125 #25 years
				}
			}
		}
	}
	
	ovdalkanzad_amber_roots = { 
		icon = mission_marriage
		required_missions = { ovdalkanzad_tap_the_roots }
		position = 6
		
		provinces_to_highlight = {
			OR = {
				area = anduz_area
				area = ambermine_alley_area
				area = earthseed_area
			}
			OR = {
				NOT = { development = 9 }
				AND = { 
					province_id = 4269
					NOT = { development = 12 }
					NOT = { has_tax_building_trigger = yes }
					NOT = { religion = ancestor_worship }
				}
				NOT = { owned_by = ROOT }
			}
			
		}
		
		trigger = {
			anduz_area = {
				type = all
				development = 9
				owned_by = ROOT
			}
			ambermine_alley_area = {
				type = all
				development = 9
				owned_by = ROOT
			}
			earthseed_area = {
				type = all
				development = 9
				owned_by = ROOT
			}
			4269 = {
				development = 12
				has_tax_building_trigger = yes
				owned_by = ROOT
				religion = ancestor_worship
			}
		}
		
		effect = {
			4269 = {
				add_permanent_province_modifier = {
					name = ovdalkanzad_shrine_of_halann
					duration = -1
				}
			}
		}
	}
}



ovdalkanzad_conquest_2 = {
	slot = 2
	generic = no
	ai = yes 
	has_country_shield = yes
	
	potential = {
		tag = H79
	}
	
	
	ovdalkanzad_extend_the_line_of_defense = { 
		icon = mission_magnificent_castle
		required_missions = {  }
		position = 1
		
		provinces_to_highlight = {
			OR = {
				area = kanzad_area
			}
			NOT = {
				country_or_non_sovereign_subject_holds = ROOT
			}
		}
		
		trigger = {
			kanzad_area = {
				type = all
				country_or_non_sovereign_subject_holds = ROOT
				is_city = yes
			}
		}
		
		effect = {
			capital_scope = {
				area = {
					add_province_modifier = {
						name = growth_of_capital
						duration = 5475 #10 years
					}
				}
			}
		}
	}
	
	ovdalkanzad_clear_the_roads = { 
		icon = mission_shady_encounter
		required_missions = { ovdalkanzad_extend_the_line_of_defense }
		position = 2
		
		trigger = {
			num_of_owned_provinces_with = {
				value = 6
				has_terrain = dwarven_road
				is_city = yes
			}
		}
		
		effect = {
			add_country_modifier = {
				name = colonial_enthusiasm
				duration = 9125 #25 years
			}
		}
	}
	
	ovdalkanzad_the_road_west = { 
		icon = mission_machine_of_war
		required_missions = { ovdalkanzad_clear_the_roads }
		position = 3
		
		provinces_to_highlight = {
			OR = {
				area = dwarovrod_45_48_area
				province_id = 4090
				province_id = 4218
			}
			NOT = {
				country_or_non_sovereign_subject_holds = ROOT
			}
		}
		
		trigger = {
			dwarovrod_45_48_area = {
				type = all
				country_or_non_sovereign_subject_holds = ROOT
			}
			4090 = { country_or_non_sovereign_subject_holds = ROOT }
			4218 = { country_or_non_sovereign_subject_holds = ROOT NOT = { has_province_modifier = infested_hold } }
		}
		
		effect = {
			4218 = {
				add_base_production = 1
				add_base_tax = 1
				add_base_manpower = 1
				add_province_modifier = {
					name = ovdalkanzad_dwarovar_resettlement
					duration = 7300
				}
			}
		}
	}
	
	ovdalkanzad_into_the_segbandal = { 
		icon = mission_treasure_room
		required_missions = { ovdalkanzad_the_road_west }
		position = 4
		
		provinces_to_highlight = {
			OR = {
				area = ozumbrog_area
				area = dwarovrod_38_41_area
			}
			NOT = {
				country_or_non_sovereign_subject_holds = ROOT
			}
		}
		
		trigger = {
			ozumbrog_area = {
				type = all
				country_or_non_sovereign_subject_holds = ROOT
			}
			dwarovrod_38_41_area = {
				type = all
				country_or_non_sovereign_subject_holds = ROOT
			}
		}
		
		effect = {
			if = {
				limit = { exists = F47 }
				add_casus_belli = {
					target = F47
					type = cb_vassalize_mission
					months = 240
				}
			}
			else_if = {
				limit = { 
					2914 = {
						NOT = { is_core = ROOT }
						NOT = { owned_by = ROOT }
					}
				}
				2914 = {
					add_claim = ROOT
				}
			}
		}
	}
	
	ovdalkanzad_fools_gold = { 
		icon = mission_entrepot_of_india
		required_missions = { ovdalkanzad_into_the_segbandal }
		position = 5
		
		provinces_to_highlight = {
			OR = {
				province_id = 2914
			}
			NOT = {
				country_or_non_sovereign_subject_holds = ROOT
			}
		}
		
		trigger = {
			2914 = {
				country_or_non_sovereign_subject_holds = ROOT
			}
		}
		
		effect = {
			add_country_modifier = {
				name = ovdalkanzad_the_citadel_treasury
				duration = 3650 #10 years
			}
		}
	}
	
	ovdalkanzad_segbandal_batteries = { 
		icon = mission_conquer_cuttack
		required_missions = { ovdalkanzad_fools_gold }
		position = 6
		
		provinces_to_highlight = {
			OR = {
				region = middle_dwarovar_region
			}
			NOT = {
				country_or_non_sovereign_subject_holds = ROOT
			}
		}
		
		trigger = {
			num_of_owned_provinces_with = {
				value = 30
				region = middle_dwarovar_region
			}
			owns_core_province = 4124
		}
		
		effect = {
			4124 = {
				add_province_modifier = { 
					name = ovdalkanzad_great_segbandal_cannons
					duration = -1
				}
			}
		}
	}
	
	ovdalkanzad_the_trees_fruit = { 
		icon = mission_riches_of_golconda
		required_missions = { ovdalkanzad_amber_roots ovdalkanzad_the_amber_tree }
		position = 7
		
		provinces_to_highlight = {
			OR = {
				region = tree_of_stone_region
			}
			NOT = { development = 15 }
		}
		
		trigger = {
			num_of_owned_provinces_with = {
				value = 20
				region = tree_of_stone_region
				development = 15
			}
		}
		
		effect = {
			add_country_modifier = {
				name = ovdalkanzad_the_trees_bounty
				duration = -1 #40 years
			}
		}
	}
}



ovdalkanzad_conquest_3 = {
	slot = 3
	generic = no
	ai = yes 
	has_country_shield = yes
	
	potential = {
		tag = H79
	}
	
	
	ovdalkanzad_the_road_east = {
		icon = mission_assassination
		required_missions = { ovdalkanzad_clear_the_roads }
		position = 3
		
		provinces_to_highlight = {
			OR = {
				area = dwarovrod_51_53_area
				area = grozumdihr_area
			}
			NOT = {
				country_or_non_sovereign_subject_holds = ROOT
			}
		}
		
		trigger = {
			dwarovrod_51_53_area = {
				type = all
				country_or_non_sovereign_subject_holds = ROOT
			}
			grozumdihr_area = {
				type = all
				country_or_non_sovereign_subject_holds = ROOT
			}
		}
		
		effect = {
			4265 = {
				add_base_production = 1
				add_base_tax = 1
				add_base_manpower = 1
				add_province_modifier = {
					name = ovdalkanzad_dwarovar_resettlement
					duration = 7300
				}
			}
		}
	}
	
	ovdalkanzad_the_southern_hold = { 
		icon = mission_control_the_desh
		required_missions = { ovdalkanzad_the_road_east }
		position = 4
		
		provinces_to_highlight = {
			province_id = 4265
		}
		
		trigger = {
			4265 = {
				development = 40
				# has_dwarven_hold_2 = yes
			}
		}
		
		effect = {
			add_country_modifier = {
				name = ovdalkanzad_contact_with_rahen
				duration = 9125 #25 years
			}
		}
	}
	
	ovdalkanzad_clear_the_tree = { 
		icon = mission_tree_fishing
		required_missions = { ovdalkanzad_the_southern_hold }
		position = 5
		
		provinces_to_highlight = {
			OR = {
				region = tree_of_stone_region
			}
			NOT = {
				owner = { culture_group = dwarven }
			}
		}
		
		trigger = {
			NOT = {
				tree_of_stone_region = {
					NOT = { owner = { culture_group = dwarven } }
				}
			}
		}
		
		effect = {
			add_country_modifier = {
				name = ovdalkanzad_a_healthy_tree
				duration = 9125 #25 years
			}
		}
	}
	
	ovdalkanzad_the_amber_tree = { 
		icon = mission_alone_in_the_forest_2
		required_missions = { ovdalkanzad_clear_the_tree }
		position = 6
		
		provinces_to_highlight = {
			OR = {
				AND = {
					OR = {
						province_id = 4247 
						province_id = 4265
						province_id = 4284
						province_id = 4266
					}
					NOT = { has_dwarven_hold_3 = yes }
				}
			}
		}
		
		trigger = {
			tree_of_stone_region = {
				type = all
				country_or_non_sovereign_subject_holds = ROOT
			}
			4247 = { has_dwarven_hold_3 = yes }
			4265 = { has_dwarven_hold_3 = yes }
			4284 = { has_dwarven_hold_3 = yes }
			4266 = { has_dwarven_hold_3 = yes }
		}
		
		effect = {
			add_country_modifier = {
				name = ovdalkanzad_kings_of_amber
				duration = 7300 #20 years
			}
		}
	}
	
	ovdalkanzad_blast_the_command = {
		icon = mission_burning_man
		required_missions = { ovdalkanzad_the_trees_fruit ovdalkanzad_mithril_runeforged_artillery }
		position = 8
		
		provinces_to_highlight = {
			region = jade_mines_region
			OR = {
				NOT = { country_or_non_sovereign_subject_holds = ROOT }
				AND = {
					OR = {
						province_id = 4350 
						province_id = 4311
						province_id = 4313
						province_id = 4323
					}
					OR = {
						NOT = { culture_group = dwarven }
						NOT = { religion = ancestor_worship }
					}
				}
			}
		}
		
		trigger = {
			jade_mines_region = {
				type = all
				country_or_non_sovereign_subject_holds = ROOT
			}
			4350 = { culture_group = dwarven religion = ancestor_worship }
			4311 = { culture_group = dwarven religion = ancestor_worship }
			4313 = { culture_group = dwarven religion = ancestor_worship }
			4323 = { culture_group = dwarven religion = ancestor_worship }
		}
		
		effect = {
			add_country_modifier = {
				name = ovdalkanzad_sovereign_of_the_eastern_dwarovar
				duration = -1
			}
			4350 = {
				add_base_production = 1
				add_base_tax = 1
				add_base_manpower = 1
				add_province_modifier = {
					name = ovdalkanzad_dwarovar_resettlement
					duration = 7300
				}
			}
			4311 = {
				add_base_production = 1
				add_base_tax = 1
				add_base_manpower = 1
				add_province_modifier = {
					name = ovdalkanzad_dwarovar_resettlement
					duration = 7300
				}
			}
			4313 = {
				add_base_production = 1
				add_base_tax = 1
				add_base_manpower = 1
				add_province_modifier = {
					name = ovdalkanzad_dwarovar_resettlement
					duration = 7300
				}
			}
			4323 = {
				add_base_production = 1
				add_base_tax = 1
				add_base_manpower = 1
				add_province_modifier = {
					name = ovdalkanzad_dwarovar_resettlement
					duration = 7300
				}
			}
		}
	}
}



ovdalkanzad_development = {
	slot = 4
	generic = no
	ai = yes 
	has_country_shield = yes
	
	potential = {
		tag = H79
	}
	
	
	ovdalkanzad_begin_reconstruction = {
		icon = mission_colonial
		required_missions = { }
		position = 1
		
		trigger = {
			4247 = {
				has_dwarven_hold_2 = yes
			}
		}
		
		effect = {
			4247 = {
				add_province_modifier = {
					name = ovdalkanzad_relighting_the_forge
					duration = 5475 #10 years
				}
			}
		}
	}
	
	ovdalkanzad_mechanical_mining = {
		icon = mission_rb_prospect_for_coal
		required_missions = { ovdalkanzad_begin_reconstruction }
		position = 2
		
		
		trigger = {
			4247 = {
				has_dwarven_hold_4 = yes
			}
			natural_scientist = 2
			adm_power = 50
			dip_power = 50
		}
		
		effect = {
			add_adm_power = -50
			add_dip_power = -50
			4247 = {
				add_permanent_province_modifier = {
					name = ovdalkanzad_fueled_forge
					duration = -1
				}
			}
		}
	}
	
	ovdalkanzad_dwarven_production_techniques = { #Invention of the Bessemer forge (NOTE! Bessemer is an IRL person. I named the equivalent Uzthrun here)
		icon = mission_rb_central_belt_coal_mining
		required_missions = { ovdalkanzad_mechanical_mining }
		position = 3
		
		trigger = {
			4247 = {
				has_dwarven_hold_6 = yes
			}
			if = {
				limit = { has_dlc = "Cradle of Civilization" }
				natural_scientist = 4
			}
			else = { natural_scientist = 3 }
			adm_power = 100
			dip_power = 100
		}
		
		effect = {
			add_adm_power = -100
			add_dip_power = -100
			4247 = {
				remove_province_modifier = ovdalkanzad_fueled_forge
				add_permanent_province_modifier = {
					name = ovdalkanzad_the_uzthrun_forge
					duration = -1
				}
			}
		}
	}
	
	ovdalkanzad_a_new_doctrine_of_warfare = { 
		icon = mission_assemble_an_army
		required_missions = { ovdalkanzad_dwarven_production_techniques ovdalkanzad_new_steel_weapons }
		position = 5
		
		trigger = {
			num_of_artillery = 40
		}
		
		effect = {
			country_event = {
				id = ovdalkanzad.1
			}
		}
	}
	
	ovdalkanzad_mithril_runeforged_artillery = { 
		icon = mission_runeforged_cannons
		required_missions = { ovdalkanzad_mithril_artillery }
		position = 7
		
		trigger = {
			any_owned_province = {
				trade_goods = damestear
				base_production = 20
			}
		}
		
		effect = {
			remove_country_modifier = ovdalkanzad_amber_cannons_4
			add_country_modifier = {
				name = ovdalkanzad_amber_cannons_5
				duration = -1
			}
		}
	}
}



ovdalkanzad_artillery = {
	slot = 5
	generic = no
	ai = yes 
	has_country_shield = yes
	
	potential = {
		tag = H79
	}
	
	
	ovdalkanzad_restart_the_cannon_foundry = { 
		icon = mission_industrialize_bengal
		required_missions = { ovdalkanzad_begin_reconstruction }
		position = 2
		
		trigger = {
			any_owned_province = {
				trade_goods = copper
				base_production = 5
			}
		}
		
		effect = {
			add_country_modifier = {
				name = ovdalkanzad_amber_cannons_1
				duration = -1
			}
		}
	}
	
	ovdalkanzad_iron_on_the_battlefield = { 
		icon = mission_cannons_firing
		required_missions = { ovdalkanzad_restart_the_cannon_foundry ovdalkanzad_mechanical_mining }
		position = 3
		
		trigger = {
			num_of_owned_provinces_with = {
				value = 4
				trade_goods = iron
			}
		}
		
		effect = {
			remove_country_modifier = ovdalkanzad_amber_cannons_1
			add_country_modifier = {
				name = ovdalkanzad_amber_cannons_2
				duration = -1
			}
		}
	}
	
	ovdalkanzad_new_steel_weapons = { 
		icon = mission_gunpowder_warfare
		required_missions = { ovdalkanzad_iron_on_the_battlefield ovdalkanzad_dwarven_production_techniques }
		position = 4
		
		trigger = {
			any_owned_province = {
				has_building = weapons
				base_production = 25
			}
			# capital_scope = {
				# has_building = weapons
				# base_production = 25
			# }
		}
		
		effect = {
			remove_country_modifier = ovdalkanzad_amber_cannons_2
			add_country_modifier = {
				name = ovdalkanzad_amber_cannons_3
				duration = -1
			}
		}
	}
	
	ovdalkanzad_mithril_artillery = { 
		icon = mission_mithril_cannons
		required_missions = { ovdalkanzad_new_steel_weapons }
		position = 6
		
		trigger = {
			any_owned_province = {
				trade_goods = mithril
				base_production = 12
			}
		}
		
		effect = {
			remove_country_modifier = ovdalkanzad_amber_cannons_3
			add_country_modifier = {
				name = ovdalkanzad_amber_cannons_4
				duration = -1
			}
		}
	}
}
