
country_decisions = {

	form_udzenklan = {
		major = yes
		potential = {
			OR = {
				primary_culture = cave_goblin
			}
			was_never_end_game_tag_trigger = yes
			NOT = { tag = I98 } #udzenklan
			NOT = { tag = I99 } #Zarjiplaj
			NOT = { tag = I00 } #Soyzkaru
			NOT = { has_country_modifier = cave_goblin_dak_lich }
			OR = {
				ai = no
				NOT = { exists = I98 }
			}
			is_colonial_nation = no
			OR = {
				is_former_colonial_nation = no
				AND = {
					is_former_colonial_nation = yes
					ai = no
				}
			}
			normal_or_historical_nations = yes
			was_never_end_game_tag_trigger = yes
		}
		provinces_to_highlight = {
			superregion = west_serpentspine_superregion
			OR = {
				#culture = cave_goblin
				any_core_country = {
					primary_culture = cave_goblin
				}
			}
			NOT = {
				country_or_non_sovereign_subject_holds = FROM
			}
		}
		allow = {
			is_at_war = no
			is_free_or_tributary_trigger = yes
			is_nomad = no
			is_tribal = no
			has_institution = manufactories
			NOT = { has_reform = magocracy_reform }
			NOT = {
				has_country_flag = lich_ruler
			}
			NOT = { exists = I98 }
			total_development = 600	
			#owns_core_province = 2931	# er-natvir
			custom_trigger_tooltip = {
				tooltip = allclan_unite_gobbos_tooltip
				NOT = {
					west_serpentspine_superregion = {
						any_core_country = {
							primary_culture = cave_goblin
						}
						NOT = {
							country_or_non_sovereign_subject_holds = FROM
						}
					}
				}

			}
		}
		effect = {
			#if = {
			#	limit = {
			#		owns_core_province = 2931
			#	}
			#	2931 = { #er-nat
			#		move_capital_effect = yes
			#	}
			#}
			change_tag = I98
			hidden_effect = { restore_country_name = yes }
			swap_non_generic_missions = yes
			country_event = { id = ideagroups.1 }
			if = {
				limit = {
					NOT = { government_rank = 3 }
				}
				set_government_rank = 3
			}
			hidden_effect = {
				set_variable = {
					which = AllclanTensionVariable
					value = 1
				}
			}
			every_subject_country = {
				limit = {
					primary_culture = cave_goblin
					NOT = {
						liberty_desire = 10
						tag = I99
					}
				}
				hidden_effect = {
					if = {
						limit = {
							has_country_modifier = railskulker_battleclan
						}
						remove_country_modifier = railskulker_battleclan
						remove_country_modifier = railskulker_helping_our_battleclan_1
						remove_country_modifier = railskulker_helping_our_battleclan_2
						remove_country_modifier = railskulker_promises_of_citizenship
						remove_country_modifier = railskulker_cartel_levy
					}
				}
				ROOT = { inherit = PREV }
			}
			
			add_country_modifier = {
				name = "centralization_modifier"
				duration = 7300
			}
			add_prestige = 10
			if = {
				limit = {
					OR = {
						has_country_modifier = cave_goblin_snotfinger_rs
						has_country_modifier = cave_goblin_spiderwretch_rs
						has_country_modifier = cave_goblin_thieving_arrow_rs
						has_country_modifier = cave_goblin_greedy_grin_rs
						has_country_modifier = cave_goblin_truedagger_rs
						has_country_modifier = cave_goblin_mountainshark_rs
					}
				}
				remove_country_modifier = cave_goblin_snotfinger_rs
				remove_country_modifier = cave_goblin_spiderwretch_rs
				remove_country_modifier = cave_goblin_thieving_arrow_rs
				remove_country_modifier = cave_goblin_greedy_grin_rs
				remove_country_modifier = cave_goblin_truedagger_rs
				remove_country_modifier = cave_goblin_mountainshark_rs
				# remove the triggered modifiers return army prof for these mercs
				hidden_effect = { 1804 = { remove_province_triggered_modifier = merc_snotfinger_insult_warriors_free } }
				hidden_effect = { 1804 = { remove_province_triggered_modifier = merc_truedagger_dwarf_guns_free } }
				hidden_effect = { 1804 = { remove_province_triggered_modifier = merc_thieving_arrow_sharpshooters_free } }
				hidden_effect = { 1804 = { remove_province_triggered_modifier = merc_spiderwretch_spiderriders_free } }
				hidden_effect = { 1804 = { remove_province_triggered_modifier = merc_greedy_grin_skirmishers_free } }
				hidden_effect = { 1804 = { remove_province_triggered_modifier = merc_mountainshark_mountainsharks_free } }
			}
			#override_country_name = VES_UDZENKLAN # The Allclan
			hidden_effect = {
				restore_country_name = yes
			}
		}
		ai_will_do = {
			factor = 100
		}
	}

	
	form_zarjiplaj = {
		major = yes
		potential = {
			OR = {
				primary_culture = cave_goblin
			}
			was_never_end_game_tag_trigger = yes
			#OR = {
				#tag = H88
				#tag = H92
				#tag = H93
				#tag = H74 #chaingrasper should maybe become something else
			#}
			NOT = { tag = I98 } #udzenklan
			NOT = { tag = I99 } #Zarjiplaj
			NOT = { tag = I00 }
			OR = {
				ai = no
				NOT = { exists = I98 }
			}
			is_colonial_nation = no
			OR = {
				is_former_colonial_nation = no
				AND = {
					is_former_colonial_nation = yes
					ai = no
				}
			}
			normal_or_historical_nations = yes
			was_never_end_game_tag_trigger = yes
		}
		provinces_to_highlight = {

		}
		allow = {
			is_at_war = no
			is_free_or_tributary_trigger = yes
			is_nomad = no
			government = monarchy
			NOT = { exists = I99 }
			owns_core_province = 4265	# grozum
			owns_core_province = 4284   # ovdal az an
			AND = { # the dens
				owns_or_subject_of = 4271
				owns_or_subject_of = 4280
				owns_or_subject_of = 4274
			}
			OR = { #own 45 provinces in the east serpentspine or own 2 in rahen
				num_of_owned_provinces_with = {
					value = 45
					superregion = east_serpentspine_superregion
				}
				num_of_owned_provinces_with = {
					value = 2
					superregion = rahen_superregion
				}
			}
		}
		effect = {
			#4265 = { #grozum
			#	move_capital_effect = yes
			#}
			change_tag = I99
			hidden_effect = { restore_country_name = yes }
			#swap_non_generic_missions = yes
			every_subject_country = {
				limit = {
					OR = {
						tag = H88
						tag = H92
						tag = H93
					}
				}
				ROOT = { inherit = PREV }
			}
			add_historical_rival = R62
			R62 = {
				add_historical_rival = FROM
			}
			add_country_modifier = {
				name = "centralization_modifier"
				duration = 7300
			}
			add_prestige = 10
			if = {
				limit = {
					has_custom_ideas = no
				}
				country_event = { id = ideagroups.1 }
			}  
			if = {
				limit = {
					OR = {
						was_tag = H93
						was_tag = H92
						was_tag = H88
					}
				}
				override_country_name = UDZEN_TROICE
			}
			else_if = {
				limit = {
					was_tag = H74
				}
				override_country_name = DAKAZ_CARZVIYA
			}
			else_if = {
				limit = {
					NOT = {
						was_tag = H93
						was_tag = H92
						was_tag = H88
						was_tag = H74
					}
				}
				hidden_effect = {
					restore_country_name = yes
				}
			}
			set_government_rank = 2
			add_government_reform = underkingdom_reform
		}
		ai_will_do = {
			factor = 100
		}
	}

	#form_soyzkaru = {
	#	major = yes
	#	potential = {
	#		OR = {
	#			primary_culture = cave_goblin
	#			primary_culture = forest_goblin
	#		}
	#	}
	#}
}