
namespace = flavor_krak
#1-50 mission related
#51-99 disaster
#99+ ice smiths and misc

#Missions
#Midjurdr Kralt
country_event = {
	id = flavor_krak.1
	title = flavor_krak.1.t
	desc = flavor_krak.1.d
	picture = FORT_eventPicture
	
	is_triggered_only = yes
	
	option = { #admin building
		name = flavor_krak.1.a	
		4208 = { add_province_modifier = { name = krak_midjurdr_1 duration = 18250 } }
		ai_chance = { factor = 5 }
	}
	
	option = { #
		name = flavor_krak.1.b
		4208 = { add_province_modifier = { name = krak_midjurdr_2 duration = 18250 } }
		ai_chance = { factor = 5 }
	}

	option = {
		name = flavor_krak.1.c
		4208 = { add_province_modifier = { name = krak_midjurdr_3 duration = 18250 } }
		ai_chance = { factor = 5 }
	}
}
#thundersteel
country_event = {
	id = flavor_krak.2
	title = flavor_krak.2.t
	desc = flavor_krak.2.d
	picture = ADVISOR_eventPicture
	
	is_triggered_only = yes
	
	option = {
		name = flavor_krak.2.a
		add_country_modifier = { name = krak_thundersteel duration = 21900 } #60 years
		4201 = {
			discover_country = ROOT
			add_permanent_claim = ROOT
		}
		4198 = {
			discover_country = ROOT
			add_permanent_claim = ROOT
		}
		4020 = {
			discover_country = ROOT
			add_permanent_claim = ROOT
		}
		ai_chance = { factor = 5 }
	}
}
#noble outrage
country_event = {
	id = flavor_krak.3
	title = flavor_krak.3.t
	desc = flavor_krak.3.d
	picture = REVOLT_HUNGARIAN_eventPicture
	
	is_triggered_only = yes
	
	option = {
		name = flavor_krak.3.a
		4208 = { 
			add_devastation = 20
			spawn_rebels = {
				type = noble_rebels
				size = 0.8
			}
		}
		ai_chance = { factor = 5 }
	}
}
#dead end prospecting
country_event = {
	id = flavor_krak.4
	title = flavor_krak.4.t
	desc = flavor_krak.4.d
	picture = TRADE_GOODS_METALS_AND_MINING_EQUIPENT_eventPicture
	
	is_triggered_only = yes
	
	option = {
		name = flavor_krak.4.a
		dead_end_tunnel_area = { remove_province_modifier = krak_prospecting }
		4209 = { #foul dark
			if = {
				limit = { 
					NOT = {
						trade_goods = iron
						trade_goods = mithril
						trade_goods = gold
						trade_goods = gems
					}
				}
				change_trade_goods = iron
			}
			add_base_tax = 2
			add_base_production = 2
			add_base_manpower = 1
		}
		4210 = { #stillness
			if = {
				limit = { 
					NOT = {
						trade_goods = iron
						trade_goods = mithril
						trade_goods = gold
						trade_goods = gems
					}
				}
				change_trade_goods = iron
			}
			add_base_tax = 2
			add_base_production = 2
			add_base_manpower = 1
		}
		4211 = { #abrupt end
			if = {
				limit = { 
					NOT = {
						trade_goods = mithril
						trade_goods = gold
						trade_goods = gems
					}
				}
				change_trade_goods = gems
			}
			add_base_tax = 2
			add_base_production = 2
			add_base_manpower = 1
		}
		ai_chance = { factor = 5 }
	}
}
#conflicts of interest
country_event = {
	id = flavor_krak.5
	title = flavor_krak.5.t
	desc = flavor_krak.5.d
	picture = RIOTING_workers_eventPicture
	
	is_triggered_only = yes
	
	option = {
		name = flavor_krak.5.a
		add_republican_tradition = -10
		dead_end_tunnel_area = { add_province_modifier = { name = krak_anvil_conflicts duration = 7300 } }
		ai_chance = { factor = 5 }
	}
}
#disunity
country_event = {
	id = flavor_krak.6
	title = flavor_krak.6.t
	desc = flavor_krak.6.d
	picture = REVOLT_eventPicture
	
	is_triggered_only = yes
	
	option = {
		name = flavor_krak.6.a
		add_republican_tradition = -15
		add_country_modifier = { name = krak_disunity duration = 7300 }
		remove_country_modifier = krak_colonial_rush
		ai_chance = { factor = 5 }
	}
}
#massacre
country_event = {
	id = flavor_krak.7
	title = flavor_krak.7.t
	desc = flavor_krak.7.d
	picture = VILLAGE_BURNING_eventPicture
	
	is_triggered_only = yes
	
	immediate = { hidden_effect = { set_country_flag = krak_massacre_happened } }

	option = {
		name = flavor_krak.7.a
		add_republican_tradition = -20
		add_manpower = -0.2
		add_prestige = -40
		3001 = {
			if = { 
				limit = { is_city = yes } 
				add_devastation = 100
			}
			else = {
				custom_tooltip = flavor_krak.7.tooltip
				destroy_province = yes 
				add_province_modifier = { name = krak_fearful_colonization duration = 3650 }
			}
		}
		dagrinrod_13_15_area = {
			limit = { NOT = { province_id = 3001 } }
			remove_claim = ROOT
		}
		orlazam_area = {
			limit = { NOT = { province_id = 4147 } }
			remove_claim = ROOT
		}
		dagrinrod_7_9_area = { remove_claim = ROOT }
		country_event = { id = flavor_krak.200 }
		hidden_effect = {
			if = {
				limit = { has_country_flag = krak_unsteady_road_happened }
				set_country_flag = krak_disaster_can_start
			}
		}
		ai_chance = { factor = 5 }
	}
}
#unsteady road
country_event = {
	id = flavor_krak.8
	title = flavor_krak.8.t
	desc = flavor_krak.8.d
	picture = SIEGE_eventPicture
	
	is_triggered_only = yes
	
	immediate = { hidden_effect = { set_country_flag = krak_unsteady_road_happened } }

	option = {
		name = flavor_krak.8.a
		add_republican_tradition = -20
		amldihr_area = {
			add_base_tax = -1
			add_base_production = -1
			add_base_manpower = -1
			add_devastation = 30
		}
		hidden_effect = {
			if = {
				limit = { has_country_flag = krak_massacre_happened }
				set_country_flag = krak_disaster_can_start
			}
		}
		ai_chance = { factor = 5 }
	}
}
#basic roads done
country_event = {
	id = flavor_krak.9
	title = flavor_krak.9.t
	desc = flavor_krak.9.d
	picture = FARMING_eventPicture
	
	is_triggered_only = yes

	option = {
		name = flavor_krak.9.a
		4198 = { 
			remove_province_modifier = krak_road_building
			add_permanent_province_modifier = { name = krak_basic_road duration = -1 }
		}
		4201 = { 
			remove_province_modifier = krak_road_building
			add_permanent_province_modifier = { name = krak_basic_road duration = -1 }
		}
		6196 = { 
			remove_province_modifier = krak_road_building
			add_permanent_province_modifier = { name = krak_basic_road duration = -1 }
		}
		6214 = { 
			remove_province_modifier = krak_road_building
			add_permanent_province_modifier = { name = krak_basic_road duration = -1 }
		}
		ai_chance = { factor = 5 }
	}
}
#great expedition start
country_event = {
	id = flavor_krak.10
	title = flavor_krak.10.t
	desc = flavor_krak.10.d
	picture = CARAVAN_EVENT_Picture
	
	is_triggered_only = yes

	option = {
		name = flavor_krak.10.a
		hidden_effect = { country_event = { id = flavor_krak.11 days = 60 random = 30 } }
	}
}
#great expedition mid
country_event = {
	id = flavor_krak.11
	title = flavor_krak.11.t
	desc = flavor_krak.11.d
	picture = CARAVAN_EVENT_Picture
	
	is_triggered_only = yes

	option = {
		name = flavor_krak.11.a
		hidden_effect = { country_event = { id = flavor_krak.12 days = 60 random = 30 } }
	}
}
#great expedition end
country_event = {
	id = flavor_krak.12
	title = flavor_krak.12.t
	desc = flavor_krak.12.d
	picture = CARAVAN_EVENT_Picture
	
	is_triggered_only = yes

	option = {
		name = flavor_krak.12.a
		add_manpower = 4
		add_prestige = 20
		if = {
			limit = { has_dlc = "Mandate of Heaven" }
			add_splendor = 250
		}
		else = { add_stability_or_adm_power = yes }
		change_variable = { which = krak_discount_spell value = 1 }
	}
}
#krakdhumrod done
country_event = {
	id = flavor_krak.13
	title = flavor_krak.13.t
	desc = flavor_krak.13.d
	picture = CAVE_eventPicture
	
	is_triggered_only = yes

	option = {
		name = flavor_krak.13.a
		krakdhum_area = {
			limit = { NOT = { province_id = 4208 } }
			remove_province_modifier = krak_road_building
			add_permanent_province_modifier = { name = krak_krakdhumrod_rail duration = -1 }
		}
		anvils_horn_area = {
			remove_province_modifier = krak_road_building
			add_permanent_province_modifier = { name = krak_krakdhumrod_rail duration = -1 }
		}
		dead_end_tunnel_area = {
			remove_province_modifier = krak_road_building
			add_permanent_province_modifier = { name = krak_krakdhumrod_rail duration = -1 }
		}
		4201 = {
			remove_province_modifier = krak_road_building
			add_permanent_province_modifier = { name = krak_krakdhumrod_rail duration = -1 }
		}
		4198 = {
			remove_province_modifier = krak_road_building
			add_permanent_province_modifier = { name = krak_krakdhumrod_rail duration = -1 }
		}
		hidden_effect = { set_country_flag = krakdhumrod_complete }
		ai_chance = { factor = 5 }
	}
}
#2nd expedition start
country_event = {
	id = flavor_krak.14
	title = flavor_krak.14.t
	desc = flavor_krak.14.d
	picture = CARAVAN_EVENT_Picture
	
	is_triggered_only = yes

	option = {
		name = flavor_krak.14.a
		hidden_effect = { country_event = { id = flavor_krak.15 days = 60 random = 30 } }
	}
}
#2nd expedition mid
country_event = {
	id = flavor_krak.15
	title = flavor_krak.15.t
	desc = flavor_krak.15.d
	picture = CARAVAN_EVENT_Picture
	
	is_triggered_only = yes

	option = {
		name = flavor_krak.15.a
		hidden_effect = { country_event = { id = flavor_krak.16 days = 60 random = 30 } }
	}
}
#2nd expedition end
country_event = {
	id = flavor_krak.16
	title = flavor_krak.16.t
	desc = flavor_krak.16.d
	picture = CARAVAN_EVENT_Picture
	
	is_triggered_only = yes

	option = {
		name = flavor_krak.16.a
		add_manpower = 4
		add_prestige = 20
		if = {
			limit = { has_dlc = "Mandate of Heaven" }
			add_splendor = 250
		}
		else = { add_stability_or_adm_power = yes }
		change_variable = { which = krak_discount_spell value = 1 }
	}
}
#nortumrod complete
country_event = {
	id = flavor_krak.17
	title = flavor_krak.17.t
	desc = flavor_krak.17.d
	picture = FARMING_eventPicture
	
	is_triggered_only = yes

	option = {
		name = flavor_krak.17.a
		6214 = {
			remove_province_modifier = krak_road_building
			add_permanent_province_modifier = { name = krak_nortumrod_road duration = -1 }
		}
		6196 = {
			remove_province_modifier = krak_road_building
			add_permanent_province_modifier = { name = krak_nortumrod_road duration = -1 }
		}
		4202 = {
			remove_province_modifier = krak_road_building
			add_permanent_province_modifier = { name = krak_nortumrod_road duration = -1 }
		}
		4199 = {
			remove_province_modifier = krak_road_building
			add_permanent_province_modifier = { name = krak_nortumrod_road duration = -1 }
		}
		4196 = {
			remove_province_modifier = krak_road_building
			add_permanent_province_modifier = { name = krak_nortumrod_road duration = -1 }
		}
		4192 = {
			remove_province_modifier = krak_road_building
			add_permanent_province_modifier = { name = krak_nortumrod_road duration = -1 }
		}
		4193 = {
			remove_province_modifier = krak_road_building
			add_permanent_province_modifier = { name = krak_nortumrod_road duration = -1 }
		}
		4183 = {
			remove_province_modifier = krak_road_building
			add_permanent_province_modifier = { name = krak_nortumrod_road duration = -1 }
		}
		4182 = {
			remove_province_modifier = krak_road_building
			add_permanent_province_modifier = { name = krak_nortumrod_road duration = -1 }
		}
		hidden_effect = { set_country_flag = nortumrod_complete }
		ai_chance = { factor = 5 }
	}
}
#lonely mountain prospecting, these should change trade goods even if you have mithril/gold/whatever
country_event = {
	id = flavor_krak.18
	title = flavor_krak.18.t
	desc = flavor_krak.18.d
	picture = TRADE_GOODS_METALS_AND_MINING_EQUIPENT_eventPicture
	
	is_triggered_only = yes
	
	option = {
		name = flavor_krak.18.a
		lonely_mountains_area = { remove_province_modifier = krak_prospecting }
		4185 = { #isolation
			if = {
				limit = { NOT = { trade_goods = iron } }
				change_trade_goods = iron
			}
			add_base_tax = 1
			add_base_production = 1
			add_base_manpower = 1
		}
		4186 = { #solitude
			if = {
				limit = { NOT = { trade_goods = iron } }
				change_trade_goods = iron
			}
			add_base_tax = 1
			add_base_production = 1
			add_base_manpower = 1
		}
		4187 = { #lonely cave
			if = {
				limit = { NOT = { trade_goods = copper } }
				change_trade_goods = copper
			}
			add_base_tax = 1
			add_base_production = 1
			add_base_manpower = 1
		}
		4188 = { #hermit's cave
			if = {
				limit = { NOT = { trade_goods = copper } }
				change_trade_goods = copper
			}
			add_base_tax = 1
			add_base_production = 1
			add_base_manpower = 1
		}
		ai_chance = { factor = 5 }
	}
}
#ice warding spell
country_event = {
	id = flavor_krak.19
	title = flavor_krak.19.t
	desc = flavor_krak.19.d
	picture = BIG_STAR_IN_SKY_eventPicture
	
	is_triggered_only = yes

	option = {
		name = flavor_krak.19.a
		change_variable = { which = krak_discount_spell value = 1 }
		custom_tooltip = flavor_krak.19.tooltip
		hidden_effect = { set_country_flag = icecraft_field }
	}
}
#harnessing the volcano
country_event = {
	id = flavor_krak.20
	title = flavor_krak.20.t
	desc = flavor_krak.20.d
	picture = VILLAGE_BURNING_eventPicture
	
	is_triggered_only = yes

	option = {
		name = flavor_krak.20.a
		4039 = {
			add_devastation = 50
			add_base_tax = -2
			add_base_production = -2
			add_base_manpower = -2
		}
		reduce_stability_or_adm_power = yes
		hidden_effect = { set_country_flag = volcano_project_begin }
	}
}
#spark of genius
country_event = {
	id = flavor_krak.21
	title = flavor_krak.21.t
	desc = flavor_krak.21.d
	picture = ASTRONOMER_eventPicture
	
	fire_only_once = yes

	mean_time_to_happen = {
		years = 5

		modifier = {
			factor = 0.75
			OR = {
				mission_completed = krak_not_rivals
				mission_completed = krak_frozen_hearts
				mission_completed = krak_different_approach
			}
		}
		modifier = {
			factor = 0.5
			mission_completed = krak_bar_gates
		}
		modifier = {
			factor = 0.5
			mission_completed = krak_third_expedition
		}
	}

	trigger = {
		tag = I02
		has_country_flag = volcano_project_begin
		has_institution = manufactories
	}

	option = {
		name = flavor_krak.21.a
		hidden_effect = { set_country_flag = krak_missions_part3 }
		swap_non_generic_missions = yes
	}
}
#3rd expedition start
country_event = {
	id = flavor_krak.22
	title = flavor_krak.22.t
	desc = flavor_krak.22.d
	picture = CARAVAN_EVENT_Picture
	
	is_triggered_only = yes

	option = {
		name = flavor_krak.22.a
		hidden_effect = { country_event = { id = flavor_krak.23 days = 60 random = 30 } }
	}
}
#3rd expedition mid
country_event = {
	id = flavor_krak.23
	title = flavor_krak.23.t
	desc = flavor_krak.23.d
	picture = CARAVAN_EVENT_Picture
	
	is_triggered_only = yes

	option = {
		name = flavor_krak.23.a
		hidden_effect = { country_event = { id = flavor_krak.24 days = 60 random = 30 } }
	}
}
#3rd expedition end
country_event = {
	id = flavor_krak.24
	title = flavor_krak.24.t
	desc = flavor_krak.24.d
	picture = CARAVAN_EVENT_Picture
	
	is_triggered_only = yes

	option = {
		name = flavor_krak.24.a
		add_prestige = 30
		if = {
			limit = { has_dlc = "Mandate of Heaven" }
			add_splendor = 400
		}
		else = { add_stability_or_adm_power = yes }
		change_variable = { which = krak_discount_spell value = 2 }
		hidden_effect = { set_country_flag = third_expedition_complete }
	}
}
#an offer
country_event = {
	id = flavor_krak.25
	title = flavor_krak.25.t
	desc = flavor_krak.25.d
	picture = BURGHER_ESTATE_eventPicture
	
	is_triggered_only = yes

	option = {
		name = flavor_krak.25.a
		add_treasury = 5000
	}
}
#molten core
country_event = {
	id = flavor_krak.26
	title = flavor_krak.26.t
	desc = flavor_krak.26.d
	picture = SIERRA_DE_LA_PLATA_eventPicture
	
	is_triggered_only = yes

	option = {
		name = flavor_krak.26.a
		if = {
			limit = { has_dlc = "Mandate of Heaven" }
			add_splendor = 500
		}
		else = { add_stability_or_adm_power = yes }
		mission_reward_artifice_points_5 = yes
		4208 = {
			hidden_effect = { remove_province_modifier = krak_ice_forges_3 }
			add_province_modifier = { name = krak_ice_forges_4 duration = -1 }
		}
		4039 = { add_devastation = 50 }
	}
}
#everfrost crown
country_event = {
	id = flavor_krak.27
	title = flavor_krak.27.t
	desc = flavor_krak.27.d
	picture = WEX_PRECIPICE_eventPicture
	
	is_triggered_only = yes

	option = {
		name = flavor_krak.27.a
		add_country_modifier = { name = krak_everfrost_crown_modifier duration = -1 }
	}
}






#disaster
#start
country_event = {
	id = flavor_krak.51
	title = flavor_krak.51.t
	desc = flavor_krak.51.d
	picture = BORDER_TENSION_eventPicture
	
	is_triggered_only = yes
	
	option = { 
		name = flavor_krak.51.a	
		add_stability = -3
		hidden_effect = { 
			set_variable = { which = krak_disaster_monarchy value = 1 }
			set_variable = { which = krak_disaster_republic value = 1 } #so loc shows up
			country_event = { id = flavor_krak.52 days = 300 random = 100 } 
		}
		ai_chance = { factor = 5 }
	}
}
#Clan Iceheart
country_event = {
	id = flavor_krak.52
	title = flavor_krak.52.t
	desc = flavor_krak.52.d
	picture = NOT_DISCIPLINED_SOLDIERS_eventPicture
	
	is_triggered_only = yes
	
	option = {
		name = flavor_krak.52.a
		krak_add_clan_monarchy_support = yes
		add_mil_power = -200
		add_corruption = 5
		add_disaster_modifier = { name = krak_iceheart_support duration = -1 disaster = krakdhumvror_borduz_az_stun }
		ai_chance = { factor = 5 }
	}
	option = {
		name = flavor_krak.52.b
		krak_add_clan_republic_support = yes
		4208 = {
			spawn_rebels = {
				type = noble_rebels
				size = 2.5
				win = yes
				leader_dynasty = "Iceheart"
			}
		}
		random_owned_province = {
			limit = { 
				NOT = { 
					province_id = 4208 
					has_terrain = cavern
					has_terrain = dwarven_road 
				}
			}
			spawn_rebels = {
				type = noble_rebels
				size = 1.25
				leader_dynasty = "Iceheart"
			}
		}
		add_country_modifier = { name = krak_iceheart_killed duration = 18250 }
		ai_chance = { factor = 5 }
	}

	after = { hidden_effect = { country_event = { id = flavor_krak.53 days = 365 random = 120 } } }
}
#The Merchants
country_event = {
	id = flavor_krak.53
	title = flavor_krak.53.t
	desc = flavor_krak.53.d
	picture = ECONOMY_eventPicture
	
	is_triggered_only = yes

	option = {
		name = flavor_krak.53.a
		krak_add_clan_monarchy_support = yes
		reduce_stability_or_adm_power = yes
		random_owned_province = {
			limit = { province_has_center_of_trade_of_level = 1 }
			spawn_rebels = {
				type = particularist_rebels
				size = 0.75
			}
		}
		random_owned_province = {
			limit = { province_has_center_of_trade_of_level = 1 }
			spawn_rebels = {
				type = particularist_rebels
				size = 0.75
			}
		}
		random_owned_province = {
			limit = { province_has_center_of_trade_of_level = 1 }
			spawn_rebels = {
				type = particularist_rebels
				size = 0.75
			}
		}
		ai_chance = { factor = 5 }
	}
	option = {
		name = flavor_krak.53.b
		krak_add_clan_republic_support = yes
		if = {
			limit = {
				NOT = {
					calc_true_if = {
						amount = 5
						has_estate_privilege = estate_burghers_land_rights
						has_estate_privilege = estate_burghers_land_of_commerce
						has_estate_privilege = estate_burghers_free_enterprise
						has_estate_privilege = estate_burghers_patronage_of_the_arts
						has_estate_privilege = estate_burghers_control_over_monetary_policy
						has_estate_privilege = estate_burghers_commercial_board_of_advice
					}
				}
			}
			custom_tooltip = flavor_krak.53.tooltip
			hidden_effect = {
				set_variable = { which = temp_privilege_counter value = 2 }
				while = {
					limit = { check_variable = { which = temp_privilege_counter value = 1 } }
					change_variable = { which = temp_privilege_counter value = -1 }
					if = {
						limit = { NOT = { has_estate_privilege = estate_burghers_patronage_of_the_arts } }
						set_estate_privilege = estate_burghers_patronage_of_the_arts
					}
					else_if = {
						limit = { NOT = { has_estate_privilege = estate_burghers_commercial_board_of_advice } }
						set_estate_privilege = estate_burghers_commercial_board_of_advice
					}
					else_if = {
						limit = { NOT = { has_estate_privilege = estate_burghers_free_enterprise } }
						set_estate_privilege = estate_burghers_free_enterprise
					}
					else_if = {
						limit = { NOT = { has_estate_privilege = estate_burghers_control_over_monetary_policy } }
						set_estate_privilege = estate_burghers_control_over_monetary_policy
					}
					else_if = {
						limit = { NOT = { has_estate_privilege = estate_burghers_land_of_commerce } }
						set_estate_privilege = estate_burghers_land_of_commerce
					}
					else_if = {
						limit = { NOT = { has_estate_privilege = estate_burghers_land_rights } }
						set_estate_privilege = estate_burghers_land_rights
					}
				}
			}
			
		}
		else = { add_dip_power = -300 }
		add_disaster_modifier = { name = krak_merchant_support duration = -1 disaster = krakdhumvror_borduz_az_stun }
		ai_chance = { factor = 5 }
	}
	after = { hidden_effect = { country_event = { id = flavor_krak.54 days = 365 random = 120 } } }
}
#Clan Earthstriker
country_event = {
	id = flavor_krak.54
	title = flavor_krak.54.t
	desc = flavor_krak.54.d
	picture = TRADE_GOODS_METALS_AND_MINING_EQUIPENT_eventPicture
	
	is_triggered_only = yes
	
	immediate = {
		hidden_effect = {
			random_owned_province = {
				limit = { 
					NOT = { province_id = 4208 }
					has_production_building_trigger = yes
				}
				set_province_flag = earthstriker_building
			}
			random_owned_province = {
				limit = { 
					NOT = { province_id = 4208 }
					NOT = { has_province_flag = earthstriker_building }
					has_production_building_trigger = yes
				}
				set_province_flag = earthstriker_building
			}
		}
	}

	option = {
		name = flavor_krak.54.a
		krak_add_clan_monarchy_support = yes
		4208 = {
			spawn_rebels = {
				type = noble_rebels
				size = 1
				leader_dynasty = "Earthstriker"
			}
		}
		random_owned_province = {
			limit = { province_with_mineable_goods = yes }
			spawn_rebels = {
				type = noble_rebels
				size = 0.9
				leader_dynasty = "Earthstriker"
			}
		}
		random_owned_province = {
			limit = { province_with_mineable_goods = yes }
			spawn_rebels = {
				type = noble_rebels
				size = 0.9
				leader_dynasty = "Earthstriker"
			}
		}
		random_owned_province = {
			limit = { province_with_mineable_goods = yes }
			spawn_rebels = {
				type = noble_rebels
				size = 0.9
				leader_dynasty = "Earthstriker"
			}
		}
		add_country_modifier = { name = krak_earthstriker_killed duration = 18250 }
		hidden_effect = { every_owned_province = { clr_province_flag = earthstriker_building } }
		ai_chance = { factor = 5 }
	}
	option = {
		name = flavor_krak.54.b
		krak_add_clan_republic_support = yes
		add_dip_power = -200
		every_owned_province = {
			limit = { province_with_mineable_goods = yes }
			add_local_autonomy = 50
		}
		if = {
			limit = {
				num_of_owned_provinces_with = {
					value = 2
					has_province_flag = earthstriker_building
				}
			}
			every_owned_province = {
				limit = { has_province_flag = earthstriker_building }
				remove_building = workshop
				clr_province_flag = earthstriker_building
			}
		}
		else = { add_treasury = -200 }
		ai_chance = { factor = 5 }
	}

	after = { hidden_effect = { country_event = { id = flavor_krak.55 days = 365 random = 120 } } }
}
#Clan Trollslayer
country_event = {
	id = flavor_krak.55
	title = flavor_krak.55.t
	desc = flavor_krak.55.d
	picture = CONSPIRACY_eventPicture
	
	is_triggered_only = yes
	
	option = {
		name = flavor_krak.55.a
		krak_add_clan_monarchy_support = yes
		add_treasury = -500
		add_disaster_modifier = { name = krak_trollslayer_support duration = -1 disaster = krakdhumvror_borduz_az_stun }
		ai_chance = { factor = 5 }
	}
	option = {
		name = flavor_krak.55.b	
		krak_add_clan_republic_support = yes
		4208 = {
			spawn_rebels = {
				type = noble_rebels
				size = 2
				win = yes
				leader_dynasty = "Trollslayer"
			}
		}
		random_owned_province = {
			limit = { 
				NOT = { 
					province_id = 4208 
					has_terrain = cavern
					has_terrain = dwarven_road 
				}
			}
			spawn_rebels = {
				type = noble_rebels
				size = 1
				leader_dynasty = "Trollslayer"
			}
		}
		random_owned_province = {
			limit = { 
				NOT = { 
					province_id = 4208 
					has_terrain = cavern
					has_terrain = dwarven_road 
				}
			}
			spawn_rebels = {
				type = noble_rebels
				size = 1
				leader_dynasty = "Trollslayer"
			}
		}
		add_country_modifier = { name = krak_trollslayer_killed duration = 18250 }
		ai_chance = { factor = 5 }
	}
	after = { hidden_effect = { country_event = { id = flavor_krak.56 days = 365 random = 120 } } }
}
#The people
country_event = {
	id = flavor_krak.56
	title = flavor_krak.56.t
	desc = flavor_krak.56.d
	picture = CONQUISTADORS_eventPicture
	
	is_triggered_only = yes
	
	option = { 
		name = flavor_krak.56.a	
		krak_add_clan_monarchy_support = yes
		add_dip_power = -100
		add_corruption = 3
		ai_chance = { factor = 5 }
	}
	option = { 
		name = flavor_krak.56.b	
		krak_add_clan_republic_support = yes
		add_adm_power = -100
		add_treasury = -400
		ai_chance = { factor = 5 }
	}
	after = { hidden_effect = { country_event = { id = flavor_krak.57 days = 300 random = 100 } } }
}
#Clan Shalebeard
country_event = {
	id = flavor_krak.57
	title = flavor_krak.57.t
	desc = flavor_krak.57.d
	picture = AULIC_COUNCIL_eventPicture
	
	is_triggered_only = yes
	
	option = { 
		name = flavor_krak.57.a	
		krak_add_clan_monarchy_support = yes
		4208 = {
			spawn_rebels = {
				type = noble_rebels
				size = 2.25
				leader_dynasty = "Shalebeard"
			}
		}
		add_country_modifier = { name = krak_shalebeard_killed duration = 18250 }
		ai_chance = { factor = 5 }
	}
	option = { 
		name = flavor_krak.57.b	
		krak_add_clan_republic_support = yes
		change_government_reform_progress = -250
		add_disaster_modifier = { name = krak_shalebeard_support duration = -1 disaster = krakdhumvror_borduz_az_stun }
		ai_chance = { factor = 5 }
	}
	after = { hidden_effect = { country_event = { id = flavor_krak.58 days = 300 random = 100 } } }
}
#The Ice-Smiths
country_event = {
	id = flavor_krak.58
	title = flavor_krak.58.t
	desc = flavor_krak.58.d
	picture = DHIMMI_ESTATE_UPSET_eventPicture
	
	is_triggered_only = yes
	
	option = { 
		name = flavor_krak.58.a	
		krak_add_clan_monarchy_support = yes
		add_adm_power = -75
		add_dip_power = -75
		add_mil_power = -75
		add_treasury = -500
		ai_chance = { factor = 5 }
	}
	option = { 
		name = flavor_krak.58.b	
		krak_add_clan_republic_support = yes
		add_estate_loyalty = {
			estate = estate_mages
			loyalty = -30
		}
		4208 = {
			add_devastation = 75
			add_base_production = -2 
		}
		dead_end_tunnel_area = { add_devastation = 50 }
		ai_chance = { factor = 5 }
	}
	after = { 
		hidden_effect = { 
			country_event = { id = flavor_krak.59 days = 300 random = 100 } 
			set_country_flag = krak_disaster_factions_done
		}
	}
}
#Clan Frozenforge
country_event = {
	id = flavor_krak.59
	title = flavor_krak.59.t
	desc = flavor_krak.59.d
	picture = CONQUEST_eventPicture
	
	is_triggered_only = yes
	
	option = { 
		name = flavor_krak.59.a	
		krak_add_clan_monarchy_support = yes
		add_adm_power = 50
		add_dip_power = 50
		add_mil_power = 50
		add_stability_or_adm_power = yes
		ai_chance = { factor = 5 }
	}
	option = { 
		name = flavor_krak.59.b	
		krak_add_clan_republic_support = yes
		add_adm_power = 50
		add_dip_power = 50
		add_mil_power = 50
		add_stability_or_adm_power = yes
		ai_chance = { factor = 5 }
	}
	after = { set_country_flag = krak_disaster_clans_done }
}



#minor noble takes fort
country_event = {
	id = flavor_krak.65
	title = flavor_krak.65.t
	desc = flavor_krak.65.d
	picture = SIEGE_PRAGUE_CASTLE_eventPicture
	
	is_triggered_only = yes
	mean_time_to_happen = { days = 1 }
	
	trigger = {
		any_owned_province = {
			has_fort_building_trigger = yes
			NOT = { 
				province_id = 4208
				has_province_flag = krak_disaster_fort
			}
		}
	}

	immediate = {
		hidden_effect = { 
			random_owned_province = {
				limit = {
					has_fort_building_trigger = yes
					NOT = { 
						province_id = 4208
						has_province_flag = krak_disaster_fort
					}
				}
				set_province_flag = krak_disaster_fort
				save_event_target_as = rebel_fort
				spawn_rebels = {
					type = noble_rebels
					win = yes
					size = 1.75
				}
			}
		}
	}
	goto = rebel_fort


	option = {
		name = flavor_krak.65.a
		krak_add_monarchy_support = yes
		ai_chance = { factor = 5 }
	}
	option = {
		name = flavor_krak.65.b
		krak_add_republic_support = yes
		add_treasury = -200
		add_corruption = 1
		event_target:rebel_fort = {
			clear_rebels = yes
			change_controller = ROOT
		}
		ai_chance = { factor = 5 }
	}
}
#peasant outrage
country_event = {
	id = flavor_krak.66
	title = flavor_krak.66.t
	desc = flavor_krak.66.d
	picture = ANGRY_MOB_eventPicture
	
	is_triggered_only = yes
	mean_time_to_happen = { days = 1 }

	immediate = { hidden_effect = { random_owned_province = { save_event_target_as = revolt_province } } }
	goto = revolt_province

	option = { 
		name = flavor_krak.66.a
		krak_add_monarchy_support = yes
		event_target:revolt_province = {
			spawn_rebels = {
				type = anti_tax_rebels
				size = 1.25
			}
			add_local_autonomy = 10
		}
		ai_chance = { factor = 5 }
	}
	option = { 
		name = flavor_krak.66.b	
		krak_add_republic_support = yes
		event_target:revolt_province = {
			spawn_rebels = {
				type = anti_tax_rebels
				size = 0.5
			}
			add_local_autonomy = 30
		}
		ai_chance = { factor = 5 }
	}
}
#worker strike
country_event = {
	id = flavor_krak.67
	title = flavor_krak.67.t
	desc = flavor_krak.67.d
	picture = RIOTING_workers_eventPicture
	
	is_triggered_only = yes
	mean_time_to_happen = { days = 1 }

	immediate = { hidden_effect = { random_owned_province = { save_event_target_as = revolt_province } } }
	goto = revolt_province

	option = { 
		name = flavor_krak.67.a	
		krak_add_monarchy_support = yes
		event_target:revolt_province = {
			spawn_rebels = {
				type = particularist_rebels
				size = 1.25
			}
			add_local_autonomy = 10
		}
		ai_chance = { factor = 5 }
	}
	option = { 
		name = flavor_krak.67.b	
		krak_add_republic_support = yes
		add_treasury = -50
		add_dip_power = -25
		event_target:revolt_province = { add_local_autonomy = 25 }
		ai_chance = { factor = 5 }
	}
}



#end
country_event = {
	id = flavor_krak.99
	title = flavor_krak.99.t
	desc = {
		trigger = { check_variable = { which = krak_disaster_monarchy which = krak_disaster_republic } }
		desc = flavor_krak.99.d
	}
	 desc = {
		trigger = { check_variable = { which = krak_disaster_republic which = krak_disaster_monarchy } }
		desc = flavor_krak.99.d2
	}
	picture = ANGLICAN_SERMON_eventPicture
	
	is_triggered_only = yes
	
	immediate = { hidden_effect = { set_country_flag = krak_disaster_ended } }

	option = {
		name = flavor_krak.99.a
		trigger = { check_variable = { which = krak_disaster_monarchy which = krak_disaster_republic } }
		change_government = monarchy
		add_government_reform = krak_monarchy
		add_legitimacy = 100
		add_stability_or_adm_power = yes
		add_adm_power = 100
		add_dip_power = 100
		add_mil_power = 100
		define_ruler = {
			min_age = 120
			adm = 4
			dip = 5
			mil = 5
			name = "Gundomar"
			dynasty = "Frozenforge"
			culture = quartz_dwarf
			religion = ancestor_worship
		}
		hidden_effect = { add_ruler_personality = immortal_personality }
		ai_chance = { factor = 5 }
	}
	option = {
		name = flavor_krak.99.b
		trigger = { check_variable = { which = krak_disaster_republic which = krak_disaster_monarchy } }
		hidden_effect = { remove_government_reform = krak_clan_council }
		add_government_reform = krak_free_council
		add_republican_tradition = 100
		add_stability_or_adm_power = yes
		add_adm_power = 100
		add_dip_power = 100
		add_mil_power = 100
		define_ruler = {
			min_age = 120
			adm = 4
			dip = 5
			mil = 5
			name = "Gundomar Frozenforge"
			culture = quartz_dwarf
			religion = ancestor_worship
		}
		hidden_effect = { add_ruler_personality = immortal_personality }
		ai_chance = { factor = 5 }
	}

	after = { 
		hidden_effect = {
			remove_country_modifier = krak_iceheart_support
			remove_country_modifier = krak_merchant_support
			remove_country_modifier = krak_trollslayer_support
			remove_country_modifier = krak_shalebeard_support
			if = {
				limit = {
					OR = {
						has_country_modifier = krak_iceheart_killed
						has_country_modifier = krak_earthstriker_killed
						has_country_modifier = krak_trollslayer_killed
						has_country_modifier = krak_shalebeard_killed
					}
				}
				set_country_flag = krak_killed_clans
			}
			every_owned_province = { clr_province_flag = krak_disaster_fort }
		}
	}
}







#ice smiths and misc
#magic menu  discount spells variable initialized in restore hold mission
country_event = {
	id = flavor_krak.100
	title = flavor_krak.100.t
	desc = flavor_krak.100.d
	picture = BIG_BOOK_eventPicture
	
	is_triggered_only = yes
	
	option = {	#go back
		name = flavor_krak.100.a	
		highlight = yes
		if = { # Causes crashes on Linux
			limit = { ai = no }
			remove_estate_privilege = estate_mages_perform_icecraft 
		}
		else = {
			set_country_flag = revoke_mage_estate_spells
		}
		custom_tooltip = flavor_krak.100.a.tooltip
		ai_chance = { factor = 5 }
	}
	option = {	#ice-steel equipment
		name = flavor_krak.100.b
		trigger = { has_country_flag = icecraft_equipment }
		country_event = { id = flavor_krak.101 }
		ai_chance = {
			factor = 50
			modifier = {
				factor = 2
				personality = ai_militarist
			}
		}
	}
	option = {	#ice drills
		name = flavor_krak.100.c
		trigger = { has_country_flag = icecraft_drills }
		country_event = { id = flavor_krak.102 }
		ai_chance = {
			factor = 50
			modifier = {
				factor = 2
				personality = ai_capitalist
			}
		}
	}
	option = {	#frozen gems
		name = flavor_krak.100.e
		trigger = { has_country_flag = icecraft_gems }
		country_event = { id = flavor_krak.103 }
		ai_chance = {
			factor = 50
			modifier = {
				factor = 2
				personality = ai_capitalist
			}
		}
	}
	option = {	#ice field
		name = flavor_krak.100.f
		trigger = { has_country_flag = icecraft_field }
		country_event = { id = flavor_krak.104 }
		ai_chance = {
			factor = 50
			modifier = {
				factor = 2
				is_at_war = yes
			}
		}
	}
	option = {	#ice holds
		name = flavor_krak.100.g
		trigger = { has_country_flag = icecraft_holds }
		country_event = { id = flavor_krak.105 }
		ai_chance = { factor = 0 }
	}
}
#equipment
country_event = {
	id = flavor_krak.101
	title = flavor_krak.101.t
	desc = flavor_krak.101.d
	picture = BIG_BOOK_eventPicture
	
	is_triggered_only = yes
	
	option = {
		name = magic_estate.goback
		country_event = { id = flavor_krak.100 }
		ai_chance = { factor = 5 }
	}

	option = {
		name = flavor_krak.101.a
		if = {
			limit = { has_country_flag = icecraft_equipment_upgrade }
			if = {
				limit = { 
					estate_influence = {
						estate = estate_mages
						influence = 66
					}
				}
				add_mil_power = -175
				if = {
					limit = { check_variable = { which = krak_discount_spell value = 1 } } 
					change_variable = { which = krak_discount_spell value = -1 }
				}
				else = { add_years_of_income = -0.7 }
				add_country_modifier = { name = krak_icecraft_equipment_6 duration = 3650  }
			}
			else_if = {
				limit = { 
					estate_influence = {
						estate = estate_mages
						influence = 33
					}
				}
				add_mil_power = -150
				if = {
					limit = { check_variable = { which = krak_discount_spell value = 1 } } 
					change_variable = { which = krak_discount_spell value = -1 }
				}
				else = { add_years_of_income = -0.5 }
				add_country_modifier = { name = krak_icecraft_equipment_5 duration = 3650  }
			}
			else = {
				add_mil_power = -75
				if = {
					limit = { check_variable = { which = krak_discount_spell value = 1 } } 
					change_variable = { which = krak_discount_spell value = -1 }
				}
				else = { add_years_of_income = -0.3 }
				add_country_modifier = { name = krak_icecraft_equipment_4 duration = 3650  }
			}
		}
		else = {
			if = {
				limit = { 
					estate_influence = {
						estate = estate_mages
						influence = 66
					}
				}
				add_mil_power = -175
				if = {
					limit = { check_variable = { which = krak_discount_spell value = 1 } } 
					change_variable = { which = krak_discount_spell value = -1 }
				}
				else = { add_years_of_income = -0.7 }
				add_country_modifier = { name = krak_icecraft_equipment_3 duration = 3650  }
			}
			else_if = {
				limit = { 
					estate_influence = {
						estate = estate_mages
						influence = 33
					}
				}
				add_mil_power = -150
				if = {
					limit = { check_variable = { which = krak_discount_spell value = 1 } } 
					change_variable = { which = krak_discount_spell value = -1 }
				}
				else = { add_years_of_income = -0.5 }
				add_country_modifier = { name = krak_icecraft_equipment_2 duration = 3650  }
			}
			else = { 
				add_mil_power = -75
				if = {
					limit = { check_variable = { which = krak_discount_spell value = 1 } } 
					change_variable = { which = krak_discount_spell value = -1 }
				}
				else = { add_years_of_income = -0.3 }
				add_country_modifier = { name = krak_icecraft_equipment_1 duration = 3650  } 
			}
		}
		ai_chance = { factor = 50 }
	}
}
#drills
country_event = {
	id = flavor_krak.102
	title = flavor_krak.102.t
	desc = flavor_krak.102.d
	picture = BIG_BOOK_eventPicture
	
	is_triggered_only = yes
	
	option = {
		name = magic_estate.goback
		country_event = { id = flavor_krak.100 }
		ai_chance = { factor = 5 }
	}

	option = {
		name = flavor_krak.102.a
		if = {
			limit = { 
				estate_influence = {
					estate = estate_mages
					influence = 66
				}
			}
			add_adm_power = -150
			if = {
				limit = { check_variable = { which = krak_discount_spell value = 1 } } 
				change_variable = { which = krak_discount_spell value = -1 }
			}
			else = { add_years_of_income = -0.5 }
			every_owned_province = {
				limit = {
					is_core = ROOT
					province_with_mineable_goods = yes
				}
				add_province_modifier = { name = krak_icecraft_drills_3 duration = 3650 }
			}
		}
		else_if = {
			limit = { 
				estate_influence = {
					estate = estate_mages
					influence = 33
				}
			}
			add_adm_power = -100
			if = {
				limit = { check_variable = { which = krak_discount_spell value = 1 } } 
				change_variable = { which = krak_discount_spell value = -1 }
			}
			else = { add_years_of_income = -0.35 }
			every_owned_province = {
				limit = {
					is_core = ROOT
					province_with_mineable_goods = yes
				}
				add_province_modifier = { name = krak_icecraft_drills_2 duration = 3650 }
			}
		}
		else = {
			add_adm_power = -50
			if = {
				limit = { check_variable = { which = krak_discount_spell value = 1 } } 
				change_variable = { which = krak_discount_spell value = -1 }
			}
			else = { add_years_of_income = -0.2 }
			every_owned_province = {
				limit = {
					is_core = ROOT
					province_with_mineable_goods = yes
				}
				add_province_modifier = { name = krak_icecraft_drills_1 duration = 3650 }
			}
		}
		ai_chance = { factor = 50 }
	}
}
#frozengems
country_event = {
	id = flavor_krak.103
	title = flavor_krak.103.t
	desc = flavor_krak.103.d
	picture = BIG_BOOK_eventPicture
	
	is_triggered_only = yes
	
	option = {
		name = magic_estate.goback
		country_event = { id = flavor_krak.100 }
		ai_chance = { factor = 5 }
	}

	option = {
		name = flavor_krak.103.a
		#country modifier
		if = {
			limit = { has_country_flag = icecraft_gems_upgrade }
			if = {
				limit = { 
					estate_influence = {
						estate = estate_mages
						influence = 66
					}
				}
				add_country_modifier = { name = krak_frozengems_6 duration = 3650  }
			}
			else_if = {
				limit = {
					estate_influence = {
						estate = estate_mages
						influence = 33
					}
				}
				add_country_modifier = { name = krak_frozengems_5 duration = 3650  }
			}
			else = { add_country_modifier = { name = krak_frozengems_4 duration = 3650  } }
		}
		#province modifier and cost
		if = {
			limit = { 
				estate_influence = {
					estate = estate_mages
					influence = 66
				}
			}
			add_dip_power = -150
			if = {
				limit = { check_variable = { which = krak_discount_spell value = 1 } } 
				change_variable = { which = krak_discount_spell value = -1 }
			}
			else = { add_years_of_income = -0.8 }
			every_owned_province = {
				limit = {
					is_core = ROOT
					trade_goods = gems
				}
				add_province_modifier = { name = krak_frozengems_3 duration = 3650 }
			}
		}
		else_if = {
			limit = { 
				estate_influence = {
					estate = estate_mages
					influence = 33
				}
			}
			add_dip_power = -100
			if = {
				limit = { check_variable = { which = krak_discount_spell value = 1 } } 
				change_variable = { which = krak_discount_spell value = -1 }
			}
			else = { add_years_of_income = -0.55 }
			every_owned_province = {
				limit = {
					is_core = ROOT
					trade_goods = gems
				}
				add_province_modifier = { name = krak_frozengems_2 duration = 3650 }
			}
		}
		else = { 
			add_dip_power = -50
			if = {
				limit = { check_variable = { which = krak_discount_spell value = 1 } } 
				change_variable = { which = krak_discount_spell value = -1 }
			}
			else = { add_years_of_income = -0.5 }
			every_owned_province = {
				limit = {
					is_core = ROOT
					trade_goods = gems
				}
				add_province_modifier = { name = krak_frozengems_1 duration = 3650 }
			}
		}
		ai_chance = { factor = 50 }
	}
}
#icefield
country_event = {
	id = flavor_krak.104
	title = flavor_krak.104.t
	desc = flavor_krak.104.d
	picture = BIG_BOOK_eventPicture
	
	is_triggered_only = yes
	
	option = {
		name = magic_estate.goback
		country_event = { id = flavor_krak.100 }
		ai_chance = { factor = 5 }
	}

	#northpass
	option = {
		name = flavor_krak.104.a
		trigger = {
			4175 = { has_building = mage_tower owned_by = ROOT }
			4181 = { has_building = mage_tower owned_by = ROOT }
			4194 = { has_building = mage_tower owned_by = ROOT }
			4197 = { has_building = mage_tower owned_by = ROOT }
			4200 = { has_building = mage_tower owned_by = ROOT }
			4190 = { has_building = mage_tower owned_by = ROOT }
			4184 = { has_building = mage_tower owned_by = ROOT }
		}
		if = {
			limit = { check_variable = { which = krak_discount_spell value = 1 } } 
			change_variable = { which = krak_discount_spell value = -1 }
		}
		else = { add_years_of_income = -0.75 }
		northern_pass_region = {
			limit = { owned_by = ROOT }
			add_province_modifier = { name = krak_icefield duration = 3650 }
		}
		ai_chance = {
			factor = 10
			modifier = {
				factor = 100
				any_owned_province = {
					region = northern_pass_region
					owned_by = ROOT
					NOT = { controlled_by = ROOT }
				}
			}
		}
	}
	#west dwarovar
	option = {
		name = flavor_krak.104.b
		trigger = {
			num_of_owned_provinces_with = {
				region = west_dwarovar_region
				has_building = mage_tower
				value = 12
			}
		}
		if = {
			limit = { check_variable = { which = krak_discount_spell value = 1 } } 
			change_variable = { which = krak_discount_spell value = -1 }
		}
		else = { add_years_of_income = -0.75 }
		west_dwarovar_region = {
			limit = { owned_by = ROOT }
			add_province_modifier = { name = krak_icefield duration = 3650 }
		}
		ai_chance = {
			factor = 10
			modifier = {
				factor = 100
				any_owned_province = {
					region = west_dwarovar_region
					owned_by = ROOT
					NOT = { controlled_by = ROOT }
				}
			}
		}
	}
	#serpentreach
	option = {
		name = flavor_krak.104.c
		trigger = {
			num_of_owned_provinces_with = {
				region = serpentreach_region
				has_building = mage_tower
				value = 8
			}
		}
		if = {
			limit = { check_variable = { which = krak_discount_spell value = 1 } } 
			change_variable = { which = krak_discount_spell value = -1 }
		}
		else = { add_years_of_income = -0.75 }
		serpentreach_region = {
			limit = { owned_by = ROOT }
			add_province_modifier = { name = krak_icefield duration = 3650 }
		}
		ai_chance = {
			factor = 10
			modifier = {
				factor = 100
				any_owned_province = {
					region = serpentreach_region
					owned_by = ROOT
					NOT = { controlled_by = ROOT }
				}
			}
		}
	}
	#middle 
	option = {
		name = flavor_krak.104.e
		trigger = {
			num_of_owned_provinces_with = {
				region = middle_dwarovar_region
				has_building = mage_tower
				value = 9
			}
		}
		if = {
			limit = { check_variable = { which = krak_discount_spell value = 1 } } 
			change_variable = { which = krak_discount_spell value = -1 }
		}
		else = { add_years_of_income = -0.75 }
		middle_dwarovar_region = {
			limit = { owned_by = ROOT }
			add_province_modifier = { name = krak_icefield duration = 3650 }
		}
		ai_chance = {
			factor = 10
			modifier = {
				factor = 100
				any_owned_province = {
					region = middle_dwarovar_region
					owned_by = ROOT
					NOT = { controlled_by = ROOT }
				}
			}
		}
	}
	#tree 
	option = {
		name = flavor_krak.104.f
		trigger = {
			num_of_owned_provinces_with = {
				region = tree_of_stone_region
				has_building = mage_tower
				value = 7
			}
		}
		if = {
			limit = { check_variable = { which = krak_discount_spell value = 1 } } 
			change_variable = { which = krak_discount_spell value = -1 }
		}
		else = { add_years_of_income = -0.75 }
		tree_of_stone_region = {
			limit = { owned_by = ROOT }
			add_province_modifier = { name = krak_icefield duration = 3650 }
		}
		ai_chance = {
			factor = 10
			modifier = {
				factor = 100
				any_owned_province = {
					region = tree_of_stone_region
					NOT = { controlled_by = ROOT }
				}
			}
		}
	}
	#jade
	option = {
		name = flavor_krak.104.g
		trigger = {
			num_of_owned_provinces_with = {
				region = jade_mines_region
				has_building = mage_tower
				value = 6
			}
		}
		if = {
			limit = { check_variable = { which = krak_discount_spell value = 1 } } 
			change_variable = { which = krak_discount_spell value = -1 }
		}
		else = { add_years_of_income = -0.75 }
		jade_mines_region = {
			limit = { owned_by = ROOT }
			add_province_modifier = { name = krak_icefield duration = 3650 }
		}
		ai_chance = {
			factor = 10
			modifier = {
				factor = 100
				any_owned_province = {
					region = jade_mines_region
					owned_by = ROOT
					NOT = { controlled_by = ROOT }
				}
			}
		}
	}
}
#ice holds
country_event = {
	id = flavor_krak.105
	title = flavor_krak.105.t
	desc = flavor_krak.105.d
	picture = BIG_BOOK_eventPicture
	
	is_triggered_only = yes
	
	immediate = { hidden_effect = { krak_pick_holds_effect = yes } }

	option = {
		name = magic_estate.goback
		country_event = { id = flavor_krak.100 }
		ai_chance = { factor = 5 }
	}

	option = {
		name = flavor_krak.105.a
		trigger = { has_saved_event_target = candidate_1 }
		goto = candidate_1
		krak_icehold_cost = yes
		event_target:candidate_1 = { krak_icehold_effect = yes }
	}
	option = {
		name = flavor_krak.105.b
		trigger = { has_saved_event_target = candidate_2 }
		goto = candidate_2
		krak_icehold_cost = yes
		event_target:candidate_2 = { krak_icehold_effect = yes }
	}
	option = {
		name = flavor_krak.105.c
		trigger = { has_saved_event_target = candidate_3 }
		goto = candidate_3
		krak_icehold_cost = yes
		event_target:candidate_3 = { krak_icehold_effect = yes }
	}
	option = {
		name = flavor_krak.105.e
		trigger = { has_saved_event_target = candidate_4 }
		goto = candidate_4
		krak_icehold_cost = yes
		event_target:candidate_4 = { krak_icehold_effect = yes }
	}
	option = {
		name = flavor_krak.105.f
		trigger = { has_saved_event_target = candidate_5 }
		goto = candidate_5
		krak_icehold_cost = yes
		event_target:candidate_5 = { krak_icehold_effect = yes }
	}
	option = {
		name = flavor_krak.105.g
		trigger = { has_saved_event_target = candidate_6 }
		goto = candidate_6
		krak_icehold_cost = yes
		event_target:candidate_6 = { krak_icehold_effect = yes }
	}
	option = {
		name = flavor_krak.105.h
		trigger = { has_saved_event_target = candidate_7 }
		goto = candidate_7
		krak_icehold_cost = yes
		event_target:candidate_7 = { krak_icehold_effect = yes }
	}
	option = {
		name = flavor_krak.105.i
		trigger = { has_saved_event_target = candidate_8 }
		goto = candidate_8
		krak_icehold_cost = yes
		event_target:candidate_8 = { krak_icehold_effect = yes }
	}
	option = {
		name = flavor_krak.105.j
		trigger = { has_saved_event_target = candidate_9 }
		goto = candidate_9
		krak_icehold_cost = yes
		event_target:candidate_9 = { krak_icehold_effect = yes }
	}
	option = {
		name = flavor_krak.105.k
		trigger = { has_saved_event_target = candidate_10 }
		goto = candidate_10
		krak_icehold_cost = yes
		event_target:candidate_10 = { krak_icehold_effect = yes }
	}

	after = { every_owned_province = { clr_province_flag = icehold_candidate } }
}

#extend supply more iron or no?
country_event = {
	id = flavor_krak.107
	title = flavor_krak.107.t
	desc = flavor_krak.107.d
	picture = TRADE_GOODS_METALS_AND_MINING_EQUIPENT_eventPicture

	is_triggered_only = yes

	immediate = { hidden_effect = { remove_estate_privilege = estate_mages_supply_more_iron } }
	
	option = {
		name = flavor_krak.107.a
		if = { #no cheating
			limit = { NOT = { has_estate_privilege = estate_nobles_monopoly_of_metals } }
			set_estate_privilege = estate_mages_supply_more_iron
		}
	}
	option = {
		name = flavor_krak.107.b
	}
}

#krak clan council elections
country_event = {
	id = flavor_krak.200
	title = flavor_krak.200.t
	desc = {
		trigger = { NOT = { has_disaster = krakdhumvror_borduz_az_stun } }
		desc = flavor_krak.200.d
	}
	desc = {
		trigger = { has_disaster = krakdhumvror_borduz_az_stun }
		desc = flavor_krak.200.d2
	}
	picture = ELECTION_REPUBLICAN_eventPicture

	is_triggered_only = yes
	
	trigger = {
		tag = I02
		has_reform = krak_clan_council
	}

	immediate = {
		hidden_effect = {
			if = {
				limit = { NOT = { has_disaster = krakdhumvror_borduz_az_stun } }
				set_variable = { which = krak_election_counter value = 3 }
				while = {
					limit = { check_variable = { which = krak_election_counter value = 1 } }
					change_variable = { which = krak_election_counter value = -1 }
					random_list = {
						20 = { 
							modifier = {
								factor = 0
								OR = {
									has_country_flag = clan_iceheart
									has_ruler_flag = clan_iceheart
								}
							}
							set_country_flag = clan_iceheart
						}
						20 = { 
							modifier = {
								factor = 0
								OR = {
									has_country_flag = clan_earthstriker
									has_ruler_flag = clan_earthstriker
								}
							}
							set_country_flag = clan_earthstriker
						}
						20 = { 
							modifier = {
								factor = 0
								OR = {
									has_country_flag = clan_trollslayer
									has_ruler_flag = clan_trollslayer
								}
							}
							set_country_flag = clan_trollslayer
						}
						20 = { 
							modifier = {
								factor = 0
								OR = {
									has_country_flag = clan_shalebeard
									has_ruler_flag = clan_shalebeard
								}
							}
							set_country_flag = clan_shalebeard
						}
						20 = { 
							modifier = {
								factor = 0
								OR = {
									has_country_flag = clan_frozenforge
									has_ruler_flag = clan_frozenforge
								}
							}
							set_country_flag = clan_frozenforge
						}
					}
				}
			}
		}
	}

	option = {
		name = flavor_krak.200.a
		trigger = { has_country_flag = clan_iceheart }
		define_ruler = {
			change_adm = 1
			change_dip = 0
			change_mil = 2
			max_random_adm = 1
			max_random_dip = 2
			max_random_mil = 2
			dynasty = "Iceheart"
		}
		hidden_effect = { 
			add_ruler_personality = immortal_personality
			set_ruler_flag = clan_iceheart 
		}
	}
	option = {
		name = flavor_krak.200.b
		trigger = { has_country_flag = clan_earthstriker }
		define_ruler = {
			change_adm = 2
			change_dip = 0
			change_mil = 1
			max_random_adm = 2
			max_random_dip = 2
			max_random_mil = 1
			dynasty = "Earthstriker"
		}
		hidden_effect = { 
			add_ruler_personality = immortal_personality
			set_ruler_flag = clan_earthstriker 
		}
	}
	option = {
		name = flavor_krak.200.c
		trigger = { has_country_flag = clan_trollslayer }
		define_ruler = {
			change_adm = 0
			change_dip = 1
			change_mil = 2
			max_random_adm = 1
			max_random_dip = 1
			max_random_mil = 3
			dynasty = "Trollslayer"
		}
		hidden_effect = { 
			add_ruler_personality = immortal_personality
			set_ruler_flag = clan_trollslayer 
		}
	}
	option = {
		name = flavor_krak.200.e
		trigger = { has_country_flag = clan_shalebeard }
		define_ruler = {
			change_adm = 2
			change_dip = 1
			change_mil = 0
			max_random_adm = 2
			max_random_dip = 2
			max_random_mil = 1
			dynasty = "Shalebeard"
		}
		hidden_effect = { 
			add_ruler_personality = immortal_personality
			set_ruler_flag = clan_shalebeard 
		}
	}
	option = {
		name = flavor_krak.200.f
		trigger = { has_country_flag = clan_frozenforge }
		define_ruler = {
			change_adm = 0
			change_dip = 2
			change_mil = 1
			max_random_adm = 1
			max_random_dip = 2
			max_random_mil = 2
			dynasty = "Frozenforge"
		}
		hidden_effect = { 
			add_ruler_personality = immortal_personality
			set_ruler_flag = clan_frozenforge 
		}
	}
	
	#during disaster
	option = {
		name = flavor_krak.200.g
		trigger = { has_disaster = krakdhumvror_borduz_az_stun }
		add_adm_power = -50
		add_dip_power = -50
		add_mil_power = -50
	}

	after = {
		clr_country_flag = clan_iceheart
		clr_country_flag = clan_earthstriker
		clr_country_flag = clan_trollslayer
		clr_country_flag = clan_shalebeard
		clr_country_flag = clan_frozenforge
		hidden_effect = { set_variable = { which = krak_election_counter value = 0 } }
	}
}
#krak free council elections
country_event = {
	id = flavor_krak.201
	title = flavor_krak.201.t
	desc = flavor_krak.201.d
	picture = ELECTION_REPUBLICAN_eventPicture

	is_triggered_only = yes
	
	trigger = {
		tag = I02
		has_reform = krak_free_council
	}

	immediate = {
		hidden_effect = {
			set_variable = { which = krak_election_counter value = 4 }
			while = {
				limit = { check_variable = { which = krak_election_counter value = 1 } }
				change_variable = { which = krak_election_counter value = -1 }
				random_list = {
					#admin guys
					10 = { 
						modifier = {
							factor = 0
							has_country_flag = candidate_clergy
						}
						set_country_flag = candidate_clergy
					}
					10 = { 
						modifier = {
							factor = 0
							has_country_flag = candidate_admin
						}
						set_country_flag = candidate_admin
					}
					10 = { 
						modifier = {
							factor = 0
							has_country_flag = candidate_banker
						}
						set_country_flag = candidate_banker
					}
					#diplo guys
					10 = {
						modifier = {
							factor = 0
							has_country_flag = candidate_merchant
						}
						set_country_flag = candidate_merchant
					}
					10 = {
						modifier = {
							factor = 0
							has_country_flag = candidate_shady
						}
						set_country_flag = candidate_shady
					}
					10 = {
						modifier = {
							factor = 0
							has_country_flag = candidate_icesmith
						}
						set_country_flag = candidate_icesmith
					}
					#mil guys
					10 = {
						modifier = {
							factor = 0
							has_country_flag = candidate_noble
						}
						set_country_flag = candidate_noble
					}
					10 = {
						modifier = {
							factor = 0
							has_country_flag = candidate_officer
						}
						set_country_flag = candidate_officer
					}
					10 = {
						modifier = {
							factor = 0
							OR = {
								has_country_flag = candidate_explorer
								NOT = { mission_completed = krak_great_expedition }
							}
						}
						set_country_flag = candidate_explorer
					}
					10 = {
						modifier = {
							factor = 0
							OR = {
								has_country_flag = candidate_grim
								NOT = { has_country_flag = grim_legion_unlocked }		
							}
						}
						set_country_flag = candidate_grim
					}
				}
			}
		}
	}

	###admin guys
	option = { #clergy
		name = flavor_krak.201.a
		trigger = { has_country_flag = candidate_clergy }
		define_ruler = {
			change_adm = 3
			change_dip = 2
			change_mil = 1
			max_random_adm = 3
			max_random_dip = 3
			max_random_mil = 2
		}
		hidden_effect = { add_ruler_personality = immortal_personality }
		random_list = {
			25 = { add_ruler_personality = tolerant_personality }
			25 = { add_ruler_personality = zealot_personality }
			25 = { add_ruler_personality = sinner_personality }
			25 = { }
		}
	}
	option = { #administrator
		name = flavor_krak.201.b
		trigger = { has_country_flag = candidate_admin }
		define_ruler = {
			change_adm = 4
			change_dip = 1
			change_mil = 1
			max_random_adm = 2
			max_random_dip = 3
			max_random_mil = 3
		}
		hidden_effect = { add_ruler_personality = immortal_personality }
		random_list = {
			25 = { add_ruler_personality = lawgiver_personality }
			25 = { add_ruler_personality = incorruptible_personality }
			25 = { add_ruler_personality = embezzler_personality }
			25 = { }
		}
	}
	option = { #banker
		name = flavor_krak.201.c
		trigger = { has_country_flag = candidate_banker }
		define_ruler = {
			change_adm = 3
			change_dip = 2
			change_mil = 1
			max_random_adm = 2
			max_random_dip = 4
			max_random_mil = 1
		}
		hidden_effect = { add_ruler_personality = immortal_personality }
		random_list = {
			25 = { add_ruler_personality = midas_touched_personality }
			25 = { add_ruler_personality = architectural_visionary_personality }
			25 = { add_ruler_personality = greedy_personality }
			25 = { }
		}
	}

	###diplo guys
	option = { #merchant
		name = flavor_krak.201.e
		trigger = { has_country_flag = candidate_merchant }
		define_ruler = {
			change_adm = 2
			change_dip = 3
			change_mil = 1
			max_random_adm = 3
			max_random_dip = 3
			max_random_mil = 2
		}
		hidden_effect = { add_ruler_personality = immortal_personality }
		random_list = {
			25 = { add_ruler_personality = entrepreneur_personality }
			25 = { add_ruler_personality = silver_tongue_personality }
			25 = { add_ruler_personality = drunkard_personality }
			25 = { }
		}
	}
	option = { #shady dwarf
		name = flavor_krak.201.f
		trigger = { has_country_flag = candidate_shady }
		define_ruler = {
			change_adm = 1
			change_dip = 3
			change_mil = 2
			max_random_adm = 3
			max_random_dip = 2
			max_random_mil = 3
		}
		hidden_effect = { add_ruler_personality = immortal_personality }
		random_list = {
			25 = { add_ruler_personality = secretive_personality }
			25 = { add_ruler_personality = well_connected_personality }
			25 = { add_ruler_personality = drunkard_personality }
			25 = { }
		}
	}
	option = { #ice-smith
		name = flavor_krak.201.g
		trigger = { has_country_flag = candidate_icesmith }
		define_ruler = {
			change_adm = 2
			change_dip = 2
			change_mil = 2
			max_random_adm = 2
			max_random_dip = 4
			max_random_mil = 2
		}
		hidden_effect = { add_ruler_personality = immortal_personality }
		random_list = {
			25 = { add_ruler_personality = scholar_personality }
			25 = { add_ruler_personality = free_thinker_personality }
			25 = { add_ruler_personality = obsessive_perfectionist_personality }
			25 = { }
		}
	}

	###mil guys
	option = { #noble
		name = flavor_krak.201.h
		trigger = { has_country_flag = candidate_noble }
		define_ruler = {
			change_adm = 2
			change_dip = 2
			change_mil = 2
			max_random_adm = 1
			max_random_dip = 3
			max_random_mil = 4
		}
		hidden_effect = { add_ruler_personality = immortal_personality }
		random_list = {
			25 = { add_ruler_personality = careful_personality }
			25 = { add_ruler_personality = charismatic_negotiator_personality }
			25 = { add_ruler_personality = naive_personality }
			25 = { }
		}
	}
	option = { #officer
		name = flavor_krak.201.i
		trigger = { has_country_flag = candidate_officer }
		define_ruler = {
			change_adm = 1
			change_dip = 1
			change_mil = 4
			max_random_adm = 3
			max_random_dip = 3
			max_random_mil = 2
		}
		hidden_effect = { add_ruler_personality = immortal_personality }
		random_list = {
			25 = { add_ruler_personality = martial_educator_personality }
			25 = { add_ruler_personality = inspiring_leader_personality }
			25 = { add_ruler_personality = babbling_buffoon_personality }
			25 = { }
		}
	}
	option = { #explorer
		name = flavor_krak.201.j
		trigger = { has_country_flag = candidate_explorer }
		define_ruler = {
			change_adm = 2
			change_dip = 1
			change_mil = 3
			max_random_adm = 3
			max_random_dip = 3
			max_random_mil = 2
		}
		hidden_effect = { add_ruler_personality = immortal_personality }
		random_list = {
			25 = { add_ruler_personality = calm_personality }
			25 = { add_ruler_personality = tactical_genius_personality }
			25 = { add_ruler_personality = craven_personality }
			25 = { }
		}
	}
	option = { #grim legion vet
		name = flavor_krak.201.k
		trigger = { has_country_flag = candidate_grim }
		define_ruler = {
			change_adm = 1
			change_dip = 2
			change_mil = 4
			max_random_adm = 2
			max_random_dip = 3
			max_random_mil = 2
		}
		hidden_effect = { add_ruler_personality = immortal_personality }
		random_list = {
			25 = { add_ruler_personality = bold_fighter_personality }
			25 = { add_ruler_personality = strict_personality }
			25 = { add_ruler_personality = cruel_personality }
			25 = { }
		}
	}

	after = {
		clr_country_flag = candidate_clergy
		clr_country_flag = candidate_admin
		clr_country_flag = candidate_banker
		clr_country_flag = candidate_merchant
		clr_country_flag = candidate_shady
		clr_country_flag = candidate_icesmith
		clr_country_flag = candidate_noble
		clr_country_flag = candidate_officer
		clr_country_flag = candidate_explorer
		clr_country_flag = candidate_grim
		hidden_effect = { set_variable = { which = krak_election_counter value = 0 } }
	}
}